39
135
--------------------------------30-----
---1--0------------------3-------3-----
----------0-3----3-----0---------------
------------------0-3--2---------------
------------3-----0------0-------------
--------------------------0-----------3
-1-0--------0--3--------2----0---------
---------------------------------------
-------------------------3-------2-----
---0-------003------3----------0--0----
---------------------------------------
------------------0--0-----------------
---------------------------0-----------
-------------3-----3-------------------
----------2----------------------------
--0------0---------------3----3--------
-3------3------------3-----------------
---------------------------------0-----
-----------------------------------2---
--------------2--------3----------2----
----------------1----------------------
-------------------------3-------------
---------------2--------------0--------
2---------------------------1----------
3--2---0-------------------------------
---------------------------------------
----------2----------------------------
----3----------------------------------
---------0------------0---------0------
-----------------------------------2---
-------------0-----------3---1---------
--------------2-----21-----------------
-----------------0---------------------
---------2-----------------------------
--0-----------------0----3-------------
---0----------123---------2------------
-------------0--------1----------------
------------------------------------3--
---------------2---------3-------------
