54
71
0--1-----2----------------------------0------1--------
--------------------------0---------------1-----------
--------------------------0-------0-----------------0-
------0--------0--------2----------0---0--1---0---0---
--0------------0--------0-----------------------------
------------------------------------------------------
---------1----1--0------------------------------------
0----------------------------------0--1--0------------
-0---------------1--------0---------------------------
--------0----------0---0----------------0-------------
--------------------------0--------0------------------
---0------0---------------------------20--------------
-----1-0------0---------------------------------------
-0---1-----------------------------------0----1-------
----0-------0----------------0------------------------
------------------0-----------------------------------
----------------1---2------0------------0-----0-------
--------------0---------------0---------------0-------
-----------------------------1-------------------0----
----------1-----00------------1--------0--------------
1--1----0----00--------------------0--------1-0-------
--------------------------------1---------------------
------------------1----0---0-----------------0--------
----------0-----------------------------------0----0--
---------0------------------------0-2----1-----0-----1
----0----------0------------0------0------------------
------------------0----------------0------------------
------------0----------------------------0-------0----
------------------------------0--------------0--------
---------0----0-----------1--1----------------------0-
---0----------1--0----------------------0-------------
0-------------0----------00---------------------------
------------2---------------------------11------------
------------------0--------------------------0--------
-----------------1--0---0-------------1----------0----
0--------0-------------------0--0--------------------1
--------------------------0-------0---------00--1-----
--------------------------------0-------------0-------
---------------0----1-------0---------------------0---
--------------1-------------0-0-----------------------
------0--0--------------0------2----0-0-0-------00--0-
------------0---------0-------------------------------
-------------0----------------------------------------
---------------------0------0-------------------------
----------0--------0---0---------------------1--------
-0-------------------------2--1------------0----------
1--------------------0--------------------2---0----1--
0----------------0-------11--0------------0-------0---
---------0----0--------0------------------------------
---------0------------00------------00--0-------------
--0----0--1---------------------0---------0-----------
----0------0--1------0---0-------------0-0------0-----
-0----------0---------------0----------0--------------
1---0-0--------------0--------------0---0-----2-------
