47
251
-----------------------------------------------
-----------------------------------------------
---------------------------------3-------------
-------------------------------4---------------
------3----------------------------------1-----
------------------3----------------------------
-----------------------------------------24----
-----------------------------------------------
-----------------4-----------------------------
----------------------4------------------------
-----1-------------4--------------------2------
-----4-------------------------4---------------
------------------2---------------2------------
-----------------------------------------------
--------------4--------------------------------
-----------------------2-----------------------
---------3-------------------------------------
-------------------------------------------2---
-----------0------2-------4-----------3--------
-----------------3------------------------4----
-----------------------------------------------
---------------1--------4---------------2------
------------------4------------------------0---
-----------3-----------------------------------
-----------------------------------------------
---3--------------------------4----------------
-------------------------1---------------------
----------------------0------------------------
-----------------------------------------------
------------------------------------4----------
---------------------------1----------------4--
--------------------------------------------3--
-----------------------------------------------
----3-------------------------2----------------
---------------------------------2-------------
------3----------------------------------------
--------------0--------------------------------
--2------------------------------0-------------
----------1-----------------------1------------
--------------3---------------020--------------
2----------------------------------------------
-----------------------------------------2-----
----3------------------------------------------
----------------4------------------------------
-----------------------------------------------
---3-------------------------------------------
---------------0-------------------0-----------
