40
239
-----------------2---3------------------
----2-----2---------2-----1-------------
----------------------------------------
-1--------1-------------------------1---
-----------------2-----23---------------
---------3----------1-----1-------------
----------------------------------------
----------------------1----1------------
----------1---2---1--------2------------
--------------22------------------------
-------------------1------3----2--------
--------------------1-------------------
----------------1---------1----3------3-
----------3-------1------2-2-1----------
----------------------12------1---------
-----1-----------------------------1----
---------1------------------------------
-----------2-----1----------------------
-------------------2--------------------
--------------------2-------------------
------------1-2--------1--2-------------
----1--------------1---------------2----
3-------------------32-------2--------1-
--------2--2----1----2-01---------------
---2-1----------------------------------
----------------------------------------
-2---------------1----------------------
---12--------------------------3--------
------------------2---------------------
-----------------1--------1-------------
---2---------2--1-----2-1-----1------3--
-----------1-------2---1----------------
------------3---------------------------
-1------------------------------------2-
-------------2--------2-----------------
----------------------------------------
3----1---------------------------------3
-----1----------------------------------
----------------------------------------
------2----------1-1----------------1---
