42
54
-------------0---------------1-00---0-----
-----------00-1------1--1-----------------
--------01-------0------1---0--------0--00
--------1------------0-0---------------0--
----------------1---------------0---------
----0---1---------------------------------
---------0------------------------00------
----------------1---------------------0---
0--1--------0-0-----------------1---------
--------0---1----1------------------------
--0----0---0----0-------------------------
----------0----0------------0-------------
---1--1-------------------1----------0--0-
--0---1------0----------------------------
-----0--0---------------------------------
---------------0----00----0--------0------
0---0--1-0---0------------1------0--------
-----0--------0-----------------------0-0-
-----------0---------0--------------------
--------------------1---------------0-----
---0-----------------------0------------00
0----0--------1---------------------------
1-----------------------------------------
------1----------0--------------------0---
1----------------------1-0---00-----------
---0-0------------0----0------------------
------0---0--------00------0------0-------
------0----------------------------0------
----100---1----------1------------0-------
-------------0----------------------------
---------0----------0------------1----0---
------------1----------------------1------
-------------------------0-1-------0--0---
------0----------------0-----0----------1-
-------00--0---------------0-----00-------
-----0------01----0--------1-----0-------0
-0----------00-0--0------------1----------
0------------------0----------------------
----------------------------0---------0---
-------0--------------------------0---0---
----------------------------------0----0--
-0---------------1-----------------1----0-
