55
141
--------------------------------1-----------4----------
-------------2-----------------------------------------
---------------22-2--2---------------------------------
------2----------------------------------2-------------
-----------1-----------------4-------------------------
----------------------------------------2--------------
-------------------------------------------------------
--2-0------------2---------------------------4---------
-------------4-------4-------------------------------1-
-----------0-------0----2--------------------4---------
------------------------4--2---------------------------
-------------------------------------------------------
----------1-------------2------------------------------
--------------41--------------4-------0---------2------
-------------------------2-----------------------------
--1----------------------------------------------------
-----------------------2-------------------------------
---------2-----------------2-----------4---------2-----
-----------------------------------------4-------------
--------------4-------2--------------------------------
-----0----------2---------1-----------0----------------
-------------------------2-----------------------4---2-
------2---------1--------------------------------------
4---------------0--------------------------------------
-----------------------2-------------------------------
----------0--------2--------------4-2------------------
---------------------------------------------------4-2-
----------0-----------------------------0--------------
-----2-42-------------------------------------4--------
----------------------------4--------------------------
-----------------------2------------------4--42---0--0-
-----------------------0-1---1-----------2-------------
--------------------------0----------------------------
---------------------------2--------2--------2---4----4
-------------2--4--------------------------------------
---------------------------------2---------4------2----
2-----4-----------------------------------------0-2----
-----4-----------------4----4--------------------------
-2-------2-----------------------------------4--------4
---------------------------------------0---------------
---------------------------------------2----1----------
--2-2--------------------------------------------------
----------1----------2----------------2---------0------
-----------------2----4------022----------------0------
---------------4--2-------4---------2------------------
------4-------------0-------2--------------------------
-------------------2---------2--2----------------------
2-------4-------------2--------------------------------
-----------2-------------0-----------------------------
2-----------------------------------------------2------
----------------4----------0---------------------------
-2--------2------------------------------2-------------
------4-----------------------------------------------2
--------------------------------0----------------------
---------2-----------0-----------------4-----2---2-----
