45
259
---------------------------------------------
---------------------------------------------
---------------------------------------3-----
---------------------------------------------
---------------------------3-----------------
------------------------------------------3--
-----------------3-------------------------3-
---------------------------------------------
-------3-------------------------------------
---------------------1-----------------------
--0-------------4-----3----------------------
-------------------------------3-------------
---------------------------------------------
---------------------------------------------
-------------0-------------------------------
---------------------------------------------
---------------------------------------------
-----------4---------------------------------
------------------------------4--3-----------
----------3-------4--------------------------
---------------------------------------------
--------------------4------------------------
------------------4-------------------1------
---------------------------------------------
-------------------------------3-------------
---------------------------------------------
---------------------------------------------
---------------------------------------------
----------------0---------------0------------
---------------------------------4-----------
---------------------------------------------
--------------------------3------------------
----------3--------3---------------3---------
------------------------------------------00-
---------3-----------------------------------
------------------------3------------1-------
-----------------------0---------------------
---------------------------------------------
------------2-------------------0------------
-----------------4---------------3-----------
--------------------------1------42----------
--------0----------------4-------------------
------------2----------------------------3---
--4-0----------------------------------------
---------------------------------------------
