45
285
-------2-------------------1---------------0-
------2--3---------------------------3-------
--------------0-------------2--11--1---------
---------------------------------------------
-----------------------------1---------------
---------------------------------------------
---------0-------3---------------------------
--------1-------1--------3--------1----------
--------------1--2--------------1------------
--0-----------------0------------------------
---------------------------------------------
---------------------------------------------
--------2------------------------------------
---------------------------------------------
---------------------------3-----------------
------------------1-----------------3--------
-----0---------------------------------------
---1---0-------------------------------------
-----------1------1-----------3----------1---
-31-33-------------------0-------------------
---------------3-----------------------------
-----------1---------------0-----------------
---0----------1-3----------------------------
-------0---1-1--2------------------2---------
0--------3-----1----0---------------------0--
------------------------------0--------------
---------------------------------------------
--------------------1------------------------
1----------------------1---------------------
----------------------------------1----------
-------2--0-1----------1-----2---------------
------------2----1-------------1-------------
---------------------1-------------------1---
-----2---0----------0------------------------
--------1--1--------------33----3--2---------
---------------------------------1-----------
---------------------------------------------
2------------------------------1-------------
---------------0----------3------------------
------------3--------------------------------
------------------------2--------------------
----------------------------------2--1-------
-------------1-----1---------------------0---
-----------0-----0-0---------1----1----------
------------1-------2---------1--------------
