56
293
--------------------------------------------------------
-----------------------2-------------------------------2
--------------------------------------------------------
--------------------------------------------------------
-----------------2--------------------------------------
--------------------------------------------------------
--------------------------------------------------------
--------------------------------------------------------
--------------------------------------------------------
---------2----------------------------------------------
--------------------------------------------------------
-----------------------------------------------2----2---
---0----------------------------------------------------
--------------------------------------2-----2---------1-
--------------------------------------------------2-----
--------------------1-----------2-----------------------
----------------------2---------------------------------
-----2---------------------------------2----------------
-------------------2----------------------------0-------
-----------------1--------------------------------------
--------------------------------------------------------
----1------------------2--------------0-----1-----------
-----------2------2-----2--------2----------------------
--------------0-----------------------------------------
-----------------------------------------------2--------
--------------------------------------------------------
----------2-2-------------1-----------------------------
-2----------------------0-------------------------------
--------------------------------------------------------
---------------------------------------------------2----
--------------------------------------------------------
--------------------------------------------------------
------------2-------------------------------------------
------------------------------------------------0-------
--------------------------------------------------------
--------------------------------------------------------
------------------2-------------------------------------
--------------------1---------2-------------------------
--------------------------------------------------2-----
--------------------------------------------------------
------------------------------2-------------------------
--------------------------------------------------------
--------------------------------2-----------------------
-------------0------------------------------------------
-12-----------2-----------------------------------------
-2-------------------------------2----------------------
--------------------------------------------------------
--------------------------------------------------------
----------------------------------------2---------------
--------------------------------------------------------
-2------------------------------------------------------
--------------------------------------------------------
--------------------------------2-----------------------
-------------------------------------------------------2
------------------------2-------2-----------------------
-----------------------------1--------------------------
