39
137
------------------------1--------------
---------------------------------------
--------------------------------2------
-------------0----------------2--0-----
-------------------1----1--------------
---------------------------------------
----2----------------------------0-----
--2------------------------------------
-------------------------------------1-
---------------------------------------
-----------------2----------------1----
---------------------------------------
-----------0---------------------2-1---
------------------------1--------------
-----2---------------------------------
---------------------------------0-----
----------------------20---------------
---------------------------------------
-------------0-------------------------
------------------0---1----------------
1--------------------------------------
------1----2------1--------------------
----0----2-----------------------------
--------2--0---------------------------
----1----------------------1---------0-
---------1-----------------------------
---------------------------------------
------------------------1--------------
---------------0-----------------------
-------------10------------------------
---------------------------------------
---------------0-----------------------
-------------0-------------------------
-12------------------------------------
1--------------------------------------
---------------------------------------
---------------------------------------
---------------------------------------
-------------------------------1-------
