39
210
--------------------1------------------
-------1-1------11-00-----1----1-------
---2-----1-------0---------------------
------------------------1-1------------
0--------------1-------------------1---
-----------1-----1---1--1---------1----
-----2-0--1-----1--1-0-----------------
-2-------------------------------------
------------11--1----------1-----------
--------1-0------0--11----1----------2-
----------------0------1---1-----------
-----1-----1-----1---------------1-----
0----1---1--0----1---------------------
--------1-12------1-2-----0------0-----
--1------------1-1-------------1-1-----
---------1---1-----------------1-------
--------------1-----0------------------
----1----0-----1----------1------------
0----0--1-----------------1-----1-1----
---------------------------------1-----
---------------------------------------
-------------------------------1-1-----
---1---------------------------1------1
----------1-----------01-------------1-
1-------1--0-01-------1------1-----1---
-0--0---------------1--01---1----------
--21-----0------1-------1---------1----
--------------0----------2-----11------
------0----1---------------------------
-1----------------------------1--1-----
-------------1-------------2-1---------
--1------------------------------------
-----1----------12---------1-----1-----
-------1------1-------------20---------
1-------------1--1---------------------
---1---------0-1-----------------------
------0------------1---1--------------1
--------------------------10-----1-1---
---------1------0---------------------1
