40
124
-----------------------3------------3--4
---3------------13----------------------
----------------1-----------------------
-----------------1----------------------
--------4--------------0-----1----------
-----4------1------1--3-----------------
------------------------1---------------
--1-------------------------------------
--1------1------------------------------
---------3-------------0-------------0--
0-0----------------------0-----------1--
4----0---0-----------3------------4-----
---------------------------0------0-----
-------3-------------1----------------1-
------------0--------4-------------3----
--------------------------3-4----------1
-4-------------------------1------------
-------------------------3---1-------1--
----------------------------------------
----------44----------------------------
----------------------------------------
------------0---------------------------
--------0------4------1-04--------------
3-------1-----------411-----------------
----------------------------------1-----
-----------------------------4----1-----
3-------0---------------------3---------
-4-----------14-----------3-------------
-1----------------4----1----------------
-----1---------0-3-----------3----------
---4---------------1-----0--------------
---------------------4-------4-0--------
----------------------------------------
-0-----1-----------3--------3-----3-----
-4--------------1---1-------------------
--0---0-4----------4---1---------4--1---
-------------------------1--4---1-4-----
-------------------------------------0--
------------2---------3----1----------1-
--1------------1----------4-------------
