60
90
--------1-----------------------------------------------1---
--------------------------------------------------1---------
---1----------------------------------------0---------------
--------------1--------------1------------------------------
-------------------1-----------------------------------1----
------------------------------------------------------------
------------------------------------------------------------
------------------------------------------------------------
----------------------1-------------------------------------
------------------------------------------------------------
-----------------------------------------------1-----1-1-1--
----------1-----------------------------1---------------0-0-
------1---1-------------------------1----------------1-0----
------------------------------------------------------------
--------------------------------1-0--------------------1----
----0--------------------------0------1-------------------1-
------------1-------------0---------------------------------
------------------------------------------------------------
----------------------0--------------------1----------------
-----1----------1----------0-------------1------------------
--------------1-------------------0-------------------------
----------1----------------------1------------1-------------
---------------0-0--1---------------------------1----1--1---
---------------------------------------------------------1--
-------1-------------------------------------1-------0------
------------------------------------------------------------
----------------1--------------------1---------------1------
-1-----------------------1----1---------------1-------------
1--------1---------0--1-------------------------------1-----
-----0----0------------------------------1--------1---------
------------------------------------------------------------
------------------------------------------------------------
------------------------------------------1-----1-0---------
--------------------------1---------------------------------
-------------------------------------------1----------------
---------------------------1---------1----------------------
----------------0-------------------------------------------
--------------------1---------------------1-----1-----------
-------0---------------------------1---0--------------------
---------1-----------------------1--------------------------
1------01-----------------------------------0---------------
-----------1----------------------0-------1-----------------
-------------------1-----------1----------------------------
-------------------------------------------1----------------
---0---11---------------0-------11--------------------------
-------------------0---------------1------------------------
-----------------------1-----1--------------------------1---
-----------------0---------------1----------------1---------
-------------1---------0-----------0------------------------
------------------------------------------------------------
-------------------------------------1----------------1-----
-----------------------------------------1-----------------1
------------------------------------------------------------
0-----------------------------------------------------------
--------1--------------------------------------------------1
------------------------------------------------------------
-----------------------------1------------------------------
-------------------------------1----------------------------
------------------------------------------------------------
--------------1-------------0--------------0---1----1-------
