51
76
---------------------------------2-----------------
-------------2----3--------------------------------
--2-----------2--------2---2-2---------------------
--------22----------3--2-3--3--------23------------
---------------------------------------------------
-----------------0---------------------------------
------------------------------------------2--------
---------------------------------------------3-----
----------22------------------------22-----3-------
----------------------2-----------------2----------
------------------------------3-------2------------
------------------3--3-----------------------------
---------------------------------------------------
-----------------------------------3----------1----
----------------------------------------------2----
---------------------------------------------------
--------------------------------------------------2
---------------------------------------------22----
--------------3--------------2---------------------
--------------------------------------3------------
---------------------------------------------------
---------------------------------------------------
--2---------2------1--2----------------------------
-----------------3------3--------------------------
---------------------------------------------------
3------------------------------------3-------------
---------------------3-----------2-----------------
---------------------------------------------------
------2---------------------3-------------2--------
---------------------------------------------------
---------------------------------------------------
--------------2--------------------3---------------
-------------2----------------2--------------------
--------------2------------------------------------
---------------------------------------------------
-------------------2-----------------------2-------
------2-2------------------2---2-------------------
------------2--------------------------------------
-------2-------------------------3---------------2-
-----------------2---------------------------------
2-----------------3--------------------------------
---------------------------------------------------
---------------------------------0-----------------
-----------------------------------------2---------
--2-----------------------------------0------------
-----------------3------2----2---------------------
-----------------------------------3---------------
-----------------------------------------0-----2---
2--------------------------------------------------
---------------------------------------------2-----
---------2---3-------------------------------------
