29
117
----1-----------------0---1--
-----------------------------
-------------11----------2---
---2------1-----1-----11-----
--------1--1-1---------1-----
---------1-2--2------------1-
2-1-------0-----2----1--2--1-
--------------2--------------
-------22--0---------23------
2--0---2---------1----------1
---2-0---------0----1-----2--
1-------11-------------------
--------------0--------------
2--------------01--------1--1
-----1-------0---2-----1----2
-----2-2--------------1----2-
---21--2------2--1-----------
-----------------1------2----
-----------12-----------0----
-------------------1--------2
-2--1------------------3-----
2------1--1--1-1-------2-----
-1-------2-----1-----------1-
-------------1--------0-----1
2-------1-----021---------2-1
----------------1-0--------2-
--0--------------11-1--------
-----------------2-----------
0----------------0-----------
