41
168
0----------------------------------------
-----0---------------------0--------0----
-----0----2-0----------------------------
-----0--------0-----0-------------0------
------10---------------------------------
----------1-----------------0------------
--------0-----0-1------------1-----------
-----------------------------------------
------------------0----------------------
------1---------0---------1-------0------
-----------------------------------------
---01------------0--------1--------------
-----------------------------------------
-----------0---------------------0---0---
---0-------0---0--------0----------------
-----0-------------1---------------------
------0----------------------------------
-----0-----------------1------1----------
-10----2---------------------------------
----------0--------------0---------0----0
-----------------0-----------------------
---------------0-----------------------0-
----------------------------------0------
--------0-------1------------------------
--------------------------0--------------
---0----------------0--0--0----0-------1-
----------------------------------------1
------------------------0--------------1-
---------------1-------------------------
---0------0-------------1----------------
--------------0--0-----0-0----2----------
--------1-------1------------------------
----------------------00-----------------
----------------------------------0------
----------------0-----------0------------
-------------------------0---------------
---------0-------0----------1-----0------
----------------------2-1-----0----------
--1-0-0----------------------------00----
--------------------0---1----1-----------
--------1--------------------------1---00
