43
72
--01---1--------------1-----1--------------
-----------1---------------------------1-1-
-1-----------0------------0---------------1
----0---------1--1-1-----------------------
--1----------------------------------------
--1------1---------------------------------
---1-----1----1----------11------00-1-1----
--0-----------1------00---------------1----
----------0----------------00-------1-----1
-------1-----01------1-------------1-------
---1--------1---------------1-----0-------0
---------1---------------------------1-----
------0-----0---------1--1-----------1-----
0----------------0-----------0-1-----------
---------------------0--1--------------1---
------1-------1-----1-------------1--1--1--
--------1---------------------------1------
-------------------------------------------
-------------0--------------0--------------
----0------1---------------------------1---
-------------------------------------------
-----1------1-------------1----1-----------
---------------1-----------------------1---
---1-----------1---------------------------
---------------1--1----------1----1--------
----------------------------0----------1---
---------1--------------0--------1---------
--0----------1------------------------0---1
----------------------------1--------------
--1--1-------------------1-----111---------
------------------1------1-------------1--0
------------1------11------1---------1-----
------------0------------------------------
-----------0----1---11-------------1-------
-------1-----------------------------------
-------0---------------------------------1-
------1-1--------------1-------------------
----------------------------------------1--
---1--------0-----0-----------1------------
--------1-----1-----1-1------------1-----1-
-----1-------1--------------------0-----1-1
---------11-1-------------1-------1-00-----
---1-------0-----1--1---------------11-1---
