50
206
--------------------------------------------------
-------------0--------------------1----0----------
-----------------0--------------------------------
------0--------------------------------03-----1---
-----------0-----0-0--0---------------------------
--------------------------------------------------
---0-------------1--------------------------------
--1----0-------0---------0-------------0--------1-
------------------1-------------1-------------1---
---0-------11------------1------------------------
-------0-----------1-----------00---0--1----------
-------------------------1-------------3----------
---------------------0------1-------------------1-
----1--0---1------------1-------------------------
-----------------------------0---------------0----
---------------------------00---01----------------
-------------------------------1-1---1------------
-----------------0-----------03-----0---1--30-----
3----------1---------0------3---------------------
----------------------------------1-----1----1----
--------0---------------0---------0---------------
--------------------------------------------------
------------------0--------------1------0---------
1-----1-----1--------------------11--00-----1-----
-------0----0--------------0-------0--------------
-----------------0-------0--------0-------------1-
--1-----------------------------------------------
-------------1---------------------------0--------
------------------1-------------------------------
--00---------------------------0------------------
----------0------0----0-------------11------------
-----------------0-------0-----1-------------0----
------------------------------------011-----------
----------1------------------0--------------------
-00------0----------------------------------------
---------1----------------1---------------1-------
-0---------------------------------------------0-0
--0----------1---------1-----------1--------------
------------------1--------------0---------1------
--------------------------------------------------
--------1-----------------------------------------
-------------1---------------01---------------1---
-----------------1----------------01----------1-1-
--------------------0----0------------------------
--------------------------------------------------
-----------------------------------1-------0------
--------------------------------------------------
-------------------0-----------1------------------
---------------0-----11---------------------1-----
----0----------------------------------------1----
