35
250
-----------------------------------
-----4--------1--------------------
-----------------------------------
------------------------------41---
-------1----------------1----------
41--1----------------------1-------
-----------1----------------1------
--------2-------------------4------
---------4-------------------------
--------3---------------------1----
-----1------------------3-----1----
-----------------2------------1----
------1-----3-------------3--------
-----------------1-----------------
-------------1---------------------
-------------4-------4---------3-1-
-----------------------------------
--------------------44--------3----
--------1---------------1--------1-
-----2-----------------------------
1-----2------------1--------------0
----2------------1---------1-------
----------------4------------------
------------------10---------4-----
-----------------------------------
---------------4-------------------
------------------4--------------1-
-----------------------------------
----------------2------------------
-----------------------------------
-4---------------------------------
----1-----------------------------1
---------1----------4--1-----------
-----------------------------------
------------------------1--1-------
