36
38
------------------------------------
----------------------2---1---------
------------------------------------
1-----------------------------------
------------------------------------
---------------------0--------------
-------------------------0----------
----------------1-------------------
------------------------3--2--------
----------------------------1-------
--------------------1---------------
--------------------1---------------
-------------------------2-1--------
----------2-------------------------
--------------------------3----1----
-------------1-----1----------------
------------------------------------
----------------1-------------------
--------1---------------1-----------
-------2----------------------------
----0-------------------------------
-----1------------------------------
-----------------------0------------
-----3------------------------------
-------------------------3----------
------------------------------------
------------------------------------
------------------------------------
-----------------------1---1--------
------------------------1---1-------
----------------------------------1-
---2--------------------------------
------------------------------------
------------------------------------
------------------------------------
------------------------------------
