60
464
------------------------------------------------------------
----------------3------3--2---------------------------3-----
----------3--------------------------------------------2----
-------------------------3---------------------3------------
---3--------------------------3------------3----------------
------------------------------------------3-----------------
-0----2--------3----------------------------3------4--------
------1------2----32--1313----------------------------------
-----------------3-------1----------1---3-----------1-------
---3--------------------------------------------------------
-3-----------3---------1---------------------------3----1---
----0------1-------------------3----------------------------
---------------------------------3------4-----------2-------
-------------------------3--------------1------------------2
--------------1----3----------------------------------------
3-3---------------------------------------------3-----------
--3-----------3-------------1-3-----3----------3------------
--1---------3--1--------------------------------33----------
---------------------------------3----------1---1-----------
1-----------------------------------3--1--------------------
3---1------------------------------------------------1------
------------------------------3----------------------------1
----------1--------2------3-------------------------2-------
-3--------3-3---3----3-----------------------------------3--
----------3---------------3---1-----------------------------
------------------------------3---------1----------4-1------
---1----2-------2-------------------------------------------
----1-------------------------------------------------------
---2-----2-31-----------------------------------------3-----
-------------------------------------14---------4-----------
--4----3----------3----------3----2-------------------------
-------------------------------------------------4----------
---------3----------1-----1--------------------3------------
----------------------------------3-------1-----------------
--0--------------------------------2------------------------
----------------3----3----------1---------------------------
-------------------31-----------------------------------43--
3-----------------------------------------------------------
-----4------------------------------------------------------
--------------------------------------------3------3------3-
--------1------3------3-------0------1----------------------
3------------------------------------------12------1--------
-----------3----4-1-------------0----3-------------1--3-----
-------------------------------------------1-------------3--
--2-----3--2----------------------3---------------1-------1-
---------------------------------------23-------------------
--------------------3---------------------------------------
----------------------3------4----1---------------3---4-----
-------------------3---------------3------------------------
------------------------------------------------------------
------------------------------------------2-------------1---
-----1----------------3--------3------------1-0-1-----------
--------4-----------------3---------------------------------
---3---------3--------------3-------------------------------
----------------------1-------3-----------------------------
--------------2------------------------------1--------------
--3---3----------------------------------4--------3---------
------------1-------------4-------1--------------4----------
----------1------------------------------------2------3-----
------------------------------------------------------------
