49
134
--------2---------------------------1------------
--1-----1----------------------------------------
-------------------------------------------------
------3------------------2-----------------------
---------------1---------------------------------
--------3-------------------------0--------------
-----2-------------------1-1--------------1------
--------------------------------2---1------------
-------1-------1---2-1---------------------------
------------------------1------1--------1--------
----------------------1--------------------------
-------------------------------------------------
---------2----------------------------------1----
------------------------------------------------1
-------1-------------------1-------1-------------
----------------------1--------------------------
--1-------------------------------2--------------
-------------------------------------------------
------1-----2-----------------------1------------
-----------1--------------------1----------------
-------------------------------------1-----------
--------------------------3----------------------
---------------0-------------------0-------------
-----1----------1-----------------------------1--
----------------------------0--------------------
-------2------------------------1----------------
----1--------------------------------------------
----------2-----------------------------------2--
---2-1-0-----------------------------------------
-------2-------------------------------------3---
-2----------11-------------------------------1--2
---------------1---0-----------------------------
----------3-2----------------2-------------------
--1------------------------------------------2--2
-----1----------------------1--------------------
-1-2----------1------------1------------------1--
-------------------------------------------------
-------------------------------------------------
------------------------------1----0-------------
----1--------1-----------------------------------
-------------------------------------------------
------2------------------------------------------
-------------------------------------------------
1---------11----2-------------------1------------
-------------------1-----------------------------
---------------------------1---------------------
-------------------------------------------------
------------------------------2--2---------------
------------------------------------1------------
