26
29
-----------------------1-1
1----1--------------------
-----2--1-----------------
--------------------------
----------------1---------
---1----------------------
--------------------------
-------------------1--1---
--2--------1--------1-----
------1-------------------
---------1--------1--1----
2-----------------1-------
-----------------11--1---1
----------------------1-1-
-1------------------------
-1----1--------1-1--------
-------------1--------1---
------1-----------12----1-
1----------1--21---1----1-
----------1---------------
-1--------1------------1--
-------1----0----1--------
------------2--------1-1--
--------------------------
------------1-------0-----
---------1-------1------1-
