23
177
-----0--0-----0-----1--
0---0------0-----1-----
-0------2---0------0---
-1------------------0--
-------------0---------
-0-----------1--12-----
-0--1-20--2--0--10-----
---1-1--0-----------1--
---2--------2-0--0-0---
0---1------------------
----------0-----------1
---------2-------1-----
---1-1----1---0----1---
---------------0------1
1---------------1----10
----11----0-0----------
1------2--0---1--------
---------------------1-
--0---------1---0--01--
-----------------------
-------0---------------
---0---1--------1------
-------------0-----0---
