59
463
0----------------------------------------------------------
-----1------------------------------------------1----------
1----------------------------------------------------------
----1---------0----------------------1----------------0----
---1---------------10--------------1-----------------------
-----------------------------------------------1------1----
-----------------------------------------------------------
------------------------------1-----------0----------------
-----------------------------------------------------------
-----------1-----------------------------------------------
--------------------------------1-----------------------1--
----------------------------------------1------------------
--------------------------------------------------1---1----
----------1------------------1----------1------------------
------------1--1-----------0-------------------------------
--------------------1--------------------------------------
--------------------------1--------------------------------
-------------0----------------0--------------------------0-
-------------1-----------------------------1----1----------
-------1-----------1----------1------------0-------------1-
--------------1-------------1-----------------1----1-------
1-------------------------------1---------------------10---
---------0-------------------------------------------------
--------1------1--------------------------------------1----
--------------0-----1------------1---------1---------------
-1-----------------0---------------------------------------
-------0---------------------------------------------------
----1--------------------------------0---------------------
-1---------------1------------------------0------------1---
---------------1---0-----------------------------------1---
----------------------------1---------1--------------------
-----------------------------------1-----------------------
-1---1-----------1-----------0-----------------------0-----
--------1--1-------------------0---------------------------
--1-------1------------------0-------------1-1----1--------
-----------------------------------------------------------
----------------1-------------------1----------------------
---------------1-----------------------1-------------------
-----1----------1------------------0--------------------1--
----0----1-------------------------------------------------
-------1---------------------------------------------------
--------------------------------------1---1----------------
----1---------------1------------------------------0-------
-------------1----------------11--------------------------1
--1--------------------------------------------------------
---------------------------------------------0--0----------
---1--------0---------------------1--0--------------1------
-------0---------------------------------------------------
-----0----------------------1------------------------------
----------0-----------------------1---------1--------------
-----------------------------0-------------------1---------
-------------------------------------------------1---------
-1-----------------11----------------1---------01----------
-------------------0--0-----------------------0------------
-0-----------0-----------------------------------1-1--1----
1-------------1---------------1----------------------------
----1----1----------------------1--------------------------
----1------------------------------------------0-----------
-----------------------------0----------------------1------
