46
365
-------------------2--------------------------
-------------------------------0--------------
---------------------4------------------------
---------------------------------------------0
-----------------0----------------------------
-----------------0-----------0----------------
-0------------------------0-------------------
----------------------------------------------
----------------------------------------------
-----------4----------------------------------
----------------------------------------------
--------------------------------2-------------
------------------------------3---------------
--------------4-------------------------------
----------------------------------------------
----------------------------------------------
----------------2-----------------------------
----------------------------------------------
----------------------------------------------
----------------------------------------------
-----------------------------------------4----
--------------------------------------0-------
-------------------------------1--------------
----------------------------------------------
--------------------------------------------0-
----------------------------------------------
-----------------------------------3----------
----------4-----------------------------------
----------------------------------------------
-------------------------------0--------------
----------------------------------------------
----------------------------------------------
----------------------------------------------
----------------------------------------------
----------------------------------------------
----------------------------------------------
----------------------------------------------
---------------4------------------------------
--------------------------------2-------------
----------------------------------------------
----1------------------------1-----2----------
----------------1-----------0------2----------
----------------------------0-----------------
-------------------0----------------------2---
----------------------------------------------
----------------------------------------------
