31
128
-------------------------------
-------------------------------
-------------------------------
-------------------------------
--------1-----------------2----
-------------------------------
----------------------------1--
-------------------------------
------1-------------3----------
-----------1-------------------
--------------------------1----
-------------------------------
----------------1--------2-----
------0------------------------
---3---------------------------
-------------------------------
-------------------------------
-------------------------------
------0-----------------------1
-------------------------------
--------------------03--0------
-------------------------------
-------------------------------
--------3----------------------
---------3---1------1----------
---------0------2--------------
-----------------------3-------
--1----------------------------
-------------------------------
-------0-----------------------
--------------0----------------
