27
81
---------------------------
---------------------------
-1--12-1------------------1
-----------2-1-----------2-
-----2------------21-------
-----------11--------------
----------1-------1--------
-1----------11-2----------1
----1------------1----1----
---------------------------
-1----------1-----1--------
---------------------1-1---
-------------------------1-
-----2---------------------
---------------------1-----
----------------------1----
--------------2------------
------1----------1----1----
------1--1---1----1-2-----1
-------2----0------1--0-1--
---1--1--------1--1--------
---11----------2-----------
------------------2----2---
1--------------------------
-1-----1------------1------
---------1----------------1
-2---1--------------------1
