57
155
---------0---2-------------------------------------------
----2----------------------------------------------------
-0-------------------------------------------------------
------------------------------4--------------------------
-----2---------------------------------------------------
---------------------------------------------------------
--------------------------------------------------4------
---------------------------------------------------------
---------------------------------------------------------
---------------------------------------------------------
---------------------------------------------------------
---------------------------------------------------------
---------------------------------------------------------
-------------------------------2-------------------------
0--------------------------------------------------------
---------------------------------------------------------
-----------------------------------------------2---------
-------------------------4-------------------------------
----------------------------------------4----------------
-----------------------------------------------------1---
-------------2-------------------------------------------
---------------------------------------------------------
----------2---------------4------------------------------
---------------------------------------------------------
-----3---------------------------------------------------
------------------------------------------------3--------
---------------------------------------------------------
---------------------------------2-----------------------
-------------2-------------------------------------------
---------------------------------------------------------
-----2---------------------------------------------------
--------2------------------------------------------------
----------------------------------------------2--------4-
-----------------------------------------4---------------
---------------------------------------------------------
---------------------------------------------------------
---------------------------------------------------------
---------------------------------------------------------
---------------------------------------------------------
---------------------------------------------------------
---------------------------------------------------------
---------------------------------------------------------
---------------------------------------------------------
---------------------------------------------------------
---------------------------------------------------------
---------------------------------------------------------
---------------------------------------------------------
-----------------------------------------4---------------
---------------------------------------------------------
---------------------------------------------------------
--------------------------2-------------------3----------
------------------------3--------------------------------
---------------------------------------------------------
---------------------------------------------------------
------------------4--------------------------------------
-------4-------------------------------------------------
------------------------4--------------------------------
