29
79
-----------------------------
----01-----------------------
--------------------0--------
-----------------------------
---2-----1-------------------
-----32----------------------
--------1--------------------
------3-------------------0--
-----------------------------
-----------------------------
-----------------------3-----
-----------------2-----------
-----------------------------
2----------------------------
---3-----------------2-------
-----------------------------
-----------------------------
-----------------------------
------------2------0---------
2-------------------2--------
-2---------------------------
-----------------------------
-1---------------------------
-----------------------------
-------------------3----3----
-----------------------------
----------2------------------
-----------------------------
----------------3-0----------
