59
150
----1-1---------0--0---------------0------1---0----------0-
-------0-------------------------1--------------0-----1----
------------------------------0----------------------------
1---------0------------01------------------------0---------
------------------0----------------------------------10----
-----------------------------------------------10----0-----
----------------------------------------------0--------0---
-----------------------------------------------------------
---1------------------0-------------1-----------1--------1-
------------0---------------------------1------------------
-----------------------------------------------------------
-----------0-------------------------------------0---------
---0-----1----------------------------------------1-------0
-----0------------0--1--1-----------------1----------------
-----------------------1-----------0-1-----0---------------
-0-0------------------0-------0------0---------------------
-----1-----------------1--------------------------------0--
-------0-------1--------1----------------------------------
-----------------------------------0-0---------------------
------------------------10---------------------1-1---0-----
-------0------------------------------------------0---0----
---0--1--0----------------------------------------------1-1
---------0----1---------------0--0-----00------0---0-------
------------11-------------------0---------------01--------
-------------0-0--0-------1-----1---------1----------------
--------------------------------------------------------1--
---------------------1---------0--------------------------1
-----0------------------------------------------0----------
--------1--------------------------------------------------
0--------1--------------0----------------------------------
---------------1------------------------0------------------
-------11-------------0-------------------------------10---
------------------------------------------1----------------
-1------1-------------------------------------------0------
-------------------------0---------------------------------
--------0------------------0---------------------0---------
------------------1-0--------------------------------------
--------1---------------------------1--------------0-------
---------------------------------0-------------1-----------
---0---------------------------------1--------0-1---------1
------------------------------0-------1--1--0------0-------
---------1-------------0-------0-0----1-------------0------
---------0------------------------0------------------0-----
-------------------------0----------------------1----------
------------------------1---------------------------0----0-
-----------1-1-----------------10-------0------------------
--------------------------------------------------0--------
------------0----------------------------------1-----------
-------1------------------------------10-------------------
-------------------------------------------------1---------
-----------------------------------------------------0-----
---------------------------0--------------------1-------0--
------------------------0--1----------1------1---1---------
------1----------------------------------------------------
---------------------------------------------0---------0---
---------0----------0------0-----------------------1-------
---0--------------0-------------0--------------------------
----0--0---------------------------------0----------0------
0----------------------------------------------------------
