22
103
-----------1----------
4----1-----------4----
------------1---------
-----1----------------
----------------------
-----------1-2--------
----------------------
----------------------
-----1-----1----------
------2---1-----------
----------221---------
--------------4-------
---------4------------
----------------------
2---------------------
2---------------------
----------2---------1-
----------------------
----------------------
-3----1---------------
----1---------2-------
----------------------
