23
150
----0------1-----------
----------------2-0-32-
------0-----------2--2-
-00----1-2-1---------2-
--222--2--0----0-2-2---
------------------2----
-------2-0---1---------
-----------------2-----
------2-----------2----
---2-----------------2-
-2-2-------------0-----
---------21------------
12----1------2-----2---
3------------3------01-
3-3---2--3-------------
--------------------2--
------00-----1---100---
2------0--------0-2-2-2
---1---------1-0---2---
---2---------11-1-2---3
------------01---------
------20---------220--1
--------------1--------
