37
93
------------------2------------------
-------------------2-2---------------
-2-------------------1---------------
---2---------------------------------
----2------------------3--2----------
-----2------2----------3------2------
-------------------------------------
-----------2-------------------------
-------------------------23----------
-------------------------------------
--------2----------------------------
------------2------------------------
------2------------------------------
---------3----------3----------------
-----------------------------3-------
-------------------------------------
------------3---3----------------0---
-----------------------1-------------
-------------------------------------
-3------------------3-------23-------
---------22--0--3--------2-----------
--------------0----------------------
-----2-------------------------------
-------------------------------------
-------3-----------------------------
-------2-----------------------------
------------------------2-3--2-------
--------------------------2----------
------------2---------------------2--
--------------22---------------------
------------------------3-------2----
-------------------------------------
-----2----------------------------2--
--3----------------------------------
-------------------------------------
-----------------3-------------------
-----------------3-------3-----------
