43
290
----------------------0------------4-------
-------------------------------4-----------
-------------------------------------------
-------------------------------------------
-2-----------------------------------------
-------------------------------------------
-------------------------------------------
----------------------------4--------------
-------------------------------------------
-------------------------------------------
------------------------4------------------
----------------------------------------0--
-------------------------------------------
-------------------------------------------
--------------0----------------------------
-------------------------------------------
---------------4---------------------------
---3----2----------------------------------
------4------------------------------------
----------------------------4-----------2--
-----------------4-------------------------
---------------------------3---------------
---1---------------------------------------
----------------------2-----------------2--
-------------------------------------------
------------------------------------4------
-----------0--0---------4------------------
-------------------------------------------
-----------------------------------0-2-----
-3-----------------------------------------
-------------2---------2-----2-------------
-----------------2----------2-------0------
--------4------------2-2------------4------
--------------------------------------3----
-------------------------------------------
------------------3------------------------
-----------------------------------------0-
------------2------------------3-----------
-------------------------------------------
-------------------------------------------
-------------------------------------------
--------------------------2----------------
-------------------------------------------
