45
360
--------------------------------0------------
---------------------------0--0--------------
---------------------------------------------
--------------------------------------0--0--0
-------0----1----------------------0---------
----------0-------------0--0----00-----------
-----------------------0---------------------
---------------------------------------------
10-------------------------0-0-------0--0----
--0-----0-----0-0--------0-------------------
------0------------------------------0-------
----0-----------0-0--------------------------
---0----0----------------------0-----0-----0-
-----------00-0-------------------0----------
------------0--------------------------------
--------------------0----------------0----0--
--------------------------------0------------
------------------------------00-------------
------------------00---------------0---------
--0---0---------0----------------------------
-----------------------------0---------------
--0----------------0-------0----0--------0---
----------0-------------------0--------------
-01-----0----0-------------------------------
--------------------1-----------0-----0------
-----------00--------------------0--------0--
-------------------------00------------------
-------------------------------------0--1--0-
0------------------0--------------------0----
---0-------------0------------0-----------0--
----------0----------------------------------
---------------0-----------0--------0-----0--
0------------------------0---------0--------0
-----0------------0---------0----------------
------0-----------------0--------------------
0--------------------1------0---0------------
----0-----0------0-------00---------0--------
------------------------0-----0------------0-
-0---------------------0---0------------1----
-----0--------1----0-------------------0-----
---------0----------------0--------0-0-------
0-----------------------------------0--------
---------------0--------------------------0--
--------------------------------------0--0---
-------00--0--------0-0------------------0---
