57
347
-1-------------------------------------------------------
---------------------------------------------------------
---------------------------------------------------------
---------1---------------------------------------1-------
1--------------------------------------------------------
---------------------------------------------------------
---------------------------------------------------------
---------------------------------------------------------
---------------------------------------------------------
------------------------------------------------------1--
---------------1-----------------------------------------
---------------------------------------------------------
----------------------------------1---------------------1
---------------------------------------------------------
---------------------------------------------------------
---------------------------------------------------------
---------------------------------------------------------
-------------1------------11-----------------------------
-------------------------1-------------------------------
---------------------------------------------------------
-------------------1-------------------------------------
----------------0----------------------------------------
---------------------------------------------------------
------------------1-------------------------------1------
-----------------------------------------1---------------
---------------------------------------------------------
---------------------------------------------------------
------------------------------------------------------1--
---------------------------------------------------------
---------------------------------------------------------
--1---1----0---------------------------------------------
---------------------1--------1--------------------------
---------------------------------------------------------
--0------------------------------------1-----------------
---------1--1--------------------------------------------
---------------------------------------------------------
-----------------------------------------------0---------
---------------------------------------------------------
---------------------------------------------------------
-1-------------------------------------------------------
---------------------------------------------------------
---------------------------------------------------------
---------------------------------------------------------
------------------------------1--------------------------
---------------------------------------------------------
--0------------------------------------------------------
-----------------------------1---------------------------
------------------------------------------------------0--
-------------------------1-------------------------------
---------------------------------------------------------
------------------------1--------------------------------
----------------------------------------------------1----
-------------1--1----------------------------------------
---------------------------------------------------------
---------------------------------------------------------
---------------------------------------------------------
------1--------------------------------------------------
