47
158
--------------------------------------------1--
-----------------------------------------------
-----------1-----------------------------------
-----------------------------------------------
-----------------------------------------------
-----------------------------------------------
------------------2----------------------------
----------0------------------------------------
------0--------------3----------------------1--
-------------------------3---------------------
-2-3----------------------------2-------------2
----------3------------------------------------
-----------------------------------------------
---------------------------1------------------2
-----------------------------------------------
--------------------------------------------3--
-------------------3---------------------------
------------------------------2----------------
-------------------------1---------------------
---------3-----0-------------------------------
-----------------------------------------------
-3---------------------------------------------
-------------4---------------------------------
-----------------------------3-----------------
---------------1-2-----------------3------2----
----------------------------3------------------
-----------------------3-----------------------
--------2--------------------------------------
---------------------------------------3-------
-----------------------------------------------
-----------------------------------------------
-----------------------------------------------
----------------------------1-3----------------
-----3-----0----------------------------2------
-----------------------------------------------
---------------------------------------2----2--
-----------------------------------------------
-----------------------------------------------
-----------------------------------------------
------------3------4----------------------3----
-----------0-------4--------------------1------
--2---------------------------------------3----
-----------------------------------------------
--------3---------------------------------1--3-
-------------------------------3---------------
---------------------------1--3----------------
-----------------------------------------------
