23
68
----0-------------0-0--
---------------------1-
---------3-1-----------
3--------------0-------
-----------------------
-------2---------------
--3--------------------
----------------2------
-----------------------
-----------------------
-------------------1---
---------------0-------
-----------------------
-----------------------
1----------3-----------
--------1--------------
----03-----------------
0----------12----------
-----------------------
---------3--------3----
---------3---0---------
------3---1------------
---1--------2----------
