39
124
-30---23-------------------------------
3-1----1------------30-----------------
----3-------------3--------------------
-----------0--------3----------------1-
----0------1-3-------------------------
-0------------2---------------3--------
-------0----------0-----------------1--
--------------2------------0----2------
----------------------2-------------1--
-3------------3-------------------3----
----------------2------------1-3------1
-------------2------1----13--1----3--3-
---------3-------------0-----------10--
-3-----------------------------------1-
3--------------------------------------
--1--------------1--------------0------
--0--1-------1----1---3--1-------------
-------1---------------0-----0---------
--------1---------3--------------------
---------------0----1-0----------1---2-
----0--------3------1---3---------1-1--
-10----1-------------------3----------1
---------------1----0------------------
-------------------------3-------------
------0---------1---------0------------
--------------1------------3--1--------
3----------1-3-------------------------
--0---------------3--------------------
---1-3-------1----2-----3--1-1--------0
---------------------1-----------------
---0--------3---3--------0-------------
----3--3---1---------3-----------------
-----------------0----0----------------
-------1-----------1-1-0-----3---------
----------20-----------------3---------
-----3------------------1--3--0--------
-1-------------------------------------
--------------1------------------------
--0------------------------------------
