27
128
-------120--------------0--
0--30--1-----0--------13--1
-----0---1-3-110-----1-1---
---------31----------------
------1--1---1-10----------
---0-----------------------
---------1---11-1------1-3-
----0-1----1---01--1----0--
--1---------1--------------
-----0---------1--0----11-0
--------------1---------1--
----------------00---1-----
-----1---11--11--------0---
----------------------0----
--------1-------0--1-------
3--------------0-----------
-------01--0--1-1-------0--
---0---------------1-------
-------1-----1-----110---2-
--------------------------1
---------------------0-----
---------1--1------------1-
1---------1-1--1---1--1----
-------------1-------------
-0-------------1----1-1--1-
-------------12----------1-
1----0--------------------2
