39
262
------0----------1---------2------2----
----------2----------------------------
-----------------------------------0---
---------------------------------------
-----------2------------------0--------
---------------0-----------------------
--1----------------------0----1--------
---------1----------------2------------
---------------------------------------
------------1------0-------------------
-----2-----------------------2---------
---------0---1---2---------------------
-2--2---------------------2-2----------
-21---2-------------2----1-------------
------------2-------------------1------
--2--------2-------00------------------
----------------------2----------------
-----2---------------------------------
------------1--------------------------
--------------------------------------1
---------------2-----------------------
---------------------------------------
----------2---------0------------------
---------------------------1-----------
-------2--------2-2--------------------
--------------------------1------------
--1------------------------------------
------------2-----------------2--------
---------------------------------------
---1--0--------------------------------
-------0--------2-----2-----------02---
------------------2--------------------
---------------------------------------
-------------0------------------2----2-
-2-----2-----------------------------1-
---0-2-------0-------------------------
---------------------------------------
--------------------------22--------1--
---2-----2--2--------------------------
