55
421
2--------------------------------1---------------------
----0----------2--------------------1------------------
-2----------0----------0--------02---------------------
-------0----------------------------2------------------
-------------------------------------------------------
-----------------1-------1-2----2-------01-----------0-
----------------------------------------00-------------
-----------------2----2-21------------------0----------
-0----------------------------------1------------------
----------2----------2-----0---0------------------0----
------------------------------1-----------2------------
--------------------------2--------------------------2-
-1----------2---------------2-----12-------2-------2---
------------0-------------------0----------------------
------0--------------2---------------------------------
----0---1---------0-----------0--------------------0---
-----------------------------------------------1----0--
---------------------2-----1---------------------------
-1---0---------2--2--1---------2-1---------------------
----0------1-------1----------0--------0---------------
--------01----0-------------020------------------------
------1-1-------0---------------------0----------------
--------0------1-------------22--------------------0---
------------2-------------0----------------------------
--------2-2----10-----------0--0----------------0------
----------0-------------------------------------0-1----
--2-------------------------0-----------------1---1----
-------------------------------------------------------
------2-------------------------------------22---0--0--
-----------------------------------1--------0----------
----------------------------------------1--------------
1------------------------------0-11---2----------------
--------------2---2-----------21------1----------------
2----------------------1--------------------1-------0--
--1------------2---------------------------01----------
--0----------------------------1-----------------------
-2----------------------2------------1-----2-----0-----
---2-02----------------------1---------------2--1------
-------------1--------------2--------------------------
---1--------------------2--12------------------0------0
-------1-----2------------------------1----------------
---1-----------------------------2---------------------
-0--------------------------0------------------------2-
-0-2--------------2---------------------------0--------
----------1----1-----------------------0------------0--
---------0--1------0------2------------1-------------0-
-----------------0-------------------------2-----------
---------02---------------------0---------2------------
---0----1--2------------0------------------------------
-----22--11----------------------------------1---------
-------------------------2-------------------------2---
---0--------0---------------11-------------------------
----1---------------02--------2--0--0---0--------------
-1--0---1--------1-------------------------------------
--------22-------2---0-1---0-------------0-------------
