43
181
-----------------------22------------1-2---
-------------------------------------------
----1-----0--------------------------------
--2--------------2--00-----0---------------
--------2----------------------------------
-------0-------0-0----------0-2------------
0-------1--------------------------0------0
---0--0--1-2------------0------------------
-2---02--------------------------------0---
-2------------1----1----------------20-2---
---0---------0-------------2---------0-----
--2------1----------------0---1------------
---------1-0-2-----------------0-----------
-------------------------2--0-0------------
1--------2----2---------------------2------
--2---------0-------------------00------1--
---------------2---------------------------
---------------------2---------------------
------0--------0--2---------------------2--
-------------2-----------------2--------0--
--0----------------------------------------
-----0----2---2--------------00------------
-------2----1------------------------0-----
--------------------------0---2------------
---0--------0---------1--------------------
-----2-------------2-----------------0-----
-2----------------0-0-----------12---------
2------------------------------0---20------
-------0----2---20----------------------0--
-------2---0-------0-0---------------------
--------------------2----00----------------
----1---------2--------------------2-------
------2---0---------------2---------2-0----
-------------------------------------------
---------0----------------------0------2---
----------------------2--------0------2----
--------2------------0------------0-------0
--0---2-------------------2---2------------
1---------------------------1------0---1---
--0-------------------------------0----0---
------------------------------0-----0---0--
----2--2----0----------0-------------------
----------------2---------1----------------
