28
66
01-----------1-1---0--------
--------------1------11-----
--1---------1----------10---
----------------1-----------
-----------------1------1---
---2------------------------
---------0------------------
----------------------------
--------------------------11
-------1---1----------------
----------------------------
-1-----0----------------1---
----------------------------
----------------------------
--------------------------11
--1-----1--------------1----
------------02------1-------
------------------21--------
-0--------------------------
----------------------------
----------------------------
2----1----------------------
----------------------------
----------------------------
----------------------------
------2---------------------
--------------------------1-
----------------------------
