22
162
-------0-------2------
4-1----2-1------------
----2---4-1-----------
2---------------------
-----------4--------20
---0------------------
----------2-------2---
-4--------------------
-22-------------------
----------24---0--0---
----------------2--43-
-2--------------------
2-----2---------------
-------1--------------
-1--------------------
---------------0------
--4-4------4----------
---------------------4
-22-------------------
--4---4---2-----------
----14----------------
------------2-1---2--4
