58
442
----------------------------------------------------------
----------------------------------------------------------
-------------------------------------------------------1--
----------------------------------------------------------
----------------------------------------------------------
----------------------------------------------------------
----------------------------------------------------------
----------------------------------------------------------
----------------------------------------------------------
---------------------------------------------------1------
----------------------------------------------------------
----------------------------------------------------------
----------------------------------------------------------
----------------------------------------------------------
-------3--------------------------------------------------
--------------------1-------------------------------------
----------------------------------------------------------
----------------------------------------------------------
----------------------------------------------------------
----------------------------------------------------------
---------------------0------------------------------------
----------------------------------------------------------
--------------------------------------3-------------------
----------------------------------------------------------
1---------------------------------------------------------
----------------------------------------------------------
---------------------------3------------------------------
----------------------------------------------------0-----
----------------------------------------------------------
----------------------------------------------------------
----------------------------------------------------------
--------------------2-------------------------------------
----------------------------------------------------------
--1-------------------------------------------------------
----------------------------------------------------------
----------------------------------------------------------
---3------------------------------------------------------
-----------------------2----------------------------------
-----------------1----------------------------------------
-----------------------------------------1----1-----------
---------2------------------------------------------------
------------------------------2---------------------------
------------------------------0---------------------------
----------------------------------------------------------
----------------------------------------------------------
----------------------------------------------------------
---2--------------------------------------------------11--
-----------------------------------------------------3----
------------------1---------------------------------------
----------------------------------------------------------
----------------------------------------------------------
-------------3-----0--------------------------------------
----------------------------------------------------------
------------------------------------------1---------------
-----------------00---------------------------------------
----------------------------------------------------------
----------------------------------------------------------
-------------------------------------------------3--------
