20
83
--------3----1-3----
---1--3-------------
-------1------------
---1----0-----------
--------------------
-------------2------
---------2---------1
---------------2-1--
--------------------
------------12------
----3---------------
---2----------------
--------3-------2---
------1------3-1----
------0-----1------3
------1-------------
------------3------1
-------33-------2--3
------------------12
-------0--1---------
