50
317
---------------10-0----------1------1----1--------
-----------0--0----------------0-------100--------
----0--1-------------------------0----0-----------
1------1-1------------------0------0--------------
-------------1-------------0--------1--1----------
10--------1---------------1---1--1----------------
-----------------------1---------0-1-----------0--
------------------0---0---------------------------
---0-----------------1--------0---------1---------
----1---------1-----------------------------------
-----------------1----1---------------------------
-------------0-1-----0---------------------------1
1--1------0---------1-1-------1-------------------
----1----------------------0---10---0--------1---0
-----------0------------------1------------1----1-
---------------------------------0----0-----1----1
----------10------1----------------------------1--
------------00----------1---------1---------------
---------------------0-1-------------10-----------
---1--1------------------------------1------1-----
1--------------01-----------------------------11--
------1---------------------1----1---1------------
0--------------------1-------0----0------1--------
--------------------------0-----------1-0---------
1-------0--1---------1-0----0--------1--1------0--
---------1----1-0-0-------------------------------
-------1-----------------------10---------0----1--
-----0------------------0-0-----------------------
-----------1----1----------1-----00---0---0-------
--------------------------1------------1----------
------1--------------1----0---1-------------------
--1----------1------------------------------------
-1---------------0--------------------------------
--------1--------------------10-1-----------------
--------1-----------1-----------------------1-----
0----0----------------------0---------------------
------------------------------------0-------------
-------0-------------1---1------------10-----0----
----------------------1---------------------------
----------0------0--------1-------------------0---
--------0---------------------0--------0----------
-------------00--1----------1---1-----------------
-----1-------------------------0------------------
------------------------1---------------1---------
------------------1----------1----------------1--1
--1----1----------------------------0-------------
--0---------------------1---------------1-----1-1-
1-----1-------------------0---------------1---0---
----------------------0---------------------0-----
---------0-------1---------1----0-----------------
