28
33
----0-----------------------
-------0--0--------0--------
-------------------0------0-
-0----00-------------0------
---0-------00---0-0----0---1
-----------------------0---0
--0---------1-----0---------
------------------------0---
----------------------------
----0------------0-----00---
--------0-0---0-------------
-0------0-10---100----------
------1------0--------------
-----0---0------------------
------------0-0---00----0--0
-0-------0---0---0---0------
----------0---------------0-
-----0---0---0--------------
----0--------------0---00--0
---1----------------0-1-----
------0--0-0----0-----------
0-----0-------0-----0-------
--0---------------------0-0-
-----0--0----0---1----------
-----0---0--------------0---
0-0-----------------------0-
-----------------0----------
-------0---------0-0-----0--
