22
34
-1---01-----------01--
-----1-------1----0---
---1-1-------0--------
---11----------11-1--1
------------10--01-0-1
---------1--1-------1-
--1---1-----------1---
---1-1-----1--1------1
---------------------1
-10----1--1------1----
---1--1--1010----0----
----------------------
----------------------
-------1---------1----
-1---1-1--1--0--1-----
----------------0-----
--1---------0---------
----1-1--------0---1--
------01--------1--1--
------1---------------
0----------01-1-------
--11--1--------1------
