60
424
--------2---------------------------------------------------
------------------------------------------------------------
------------------------------------------------------------
------------------------------------------------------------
------------------------------------------------------------
----------------------3-------------------------------------
------------------------------------------------------------
------------------------------------------------------------
-----------------------------0------------------------------
--------------------------------------------------------2---
------------------------------------------------------------
------------------------------------------------2-----------
------------------------------------------------------------
----------------------------------2-------------------------
-----0------------------------------------------------------
----------------------------------------0-------------------
-----------2-----------------------------1------------------
------------------------------------------------------------
------------------------------------------------------------
------------------------------------------------------------
------------------------------------------------------------
------------------------3-----------------------------------
---------------------------1--------------------------------
---------2-----3------------------------3---0------------2--
------------------------------------------------------------
--------------------------------2---------------------------
-------------------2-----------------------------0----------
---------------------------------------------------------3--
-3----------------------------------------------------------
-----3-----------------------------------------------0------
--0---------------------------------------------------------
-----------------------------1------------------------------
--------------------------------3---------------------------
------------------------------------------------------------
-------3-----------------2--3------------02-----------------
------------------------------------------------------------
--------------------------------------------------------0---
----------------------------------------------------------3-
------------------------------------------------------------
------------------------------------------------------------
---------------------------------------------------------32-
------------------------------------------------------------
---------------3-----2------------3-------------------------
-------------------------------3----------------------------
---------------------------------3--------------------------
------------------------1-----------------------------------
---------------------------------------------------------0--
------------------3-----------------------------------------
------------------------------------1-----------------------
------------------------------------------------------------
------2---------0------------------------3-3----------------
--2---------------------------------------------------------
--------------------0---------------------------------------
------------------------------------------------------------
------------------------------33-------3--------------------
------------------------------------------------------------
--------------------------3------3--------------------------
-----------------------------------------------------1------
------------------------------------------------------------
---------------------------------------------2--------------
