47
242
--1--------------------------------------------
-----------------------------------------------
------------1-------------------------------3--
-------------------1---------------------------
--------------00------------------3------------
-----------------------1----------3------------
------------------1----------------------------
------1----------------------------------------
-----------------------------------------------
-----------------------------------------------
--------------------------------------------1--
-----------------------------------------------
-----------------------------------------------
-----------------------------------------------
---------1--------------------1----------------
------------------------------------1----------
--------------------------3-3------------------
------------3----1----1------------------------
--------------------1----------1---------------
----------------------------3------------------
-----------------------------------------------
------------------------------3----------------
-----2------1----------------------------------
---1---------0-------1-------------------------
---------1-1-----------------------------------
-----------------------------------------------
-----------------------------------------------
--------3------------------------------3-------
------1----------------------------------------
-----------------------------------------------
-----------------------------------------------
-1-------------------------------------------2-
-----------------------------------------3-----
----------3-----------3--------2---------------
-----------------1--3--------------------------
--1--------------------------------------------
-----------------------------------------------
--------1--------------------------------0-----
------3-------------2--------------------------
-----------------------------------------------
-2-3-------------------------------------------
----------------------------------------------3
------------------------------------3----------
----1----------------------1-----------------1-
--------3-------------------------------------3
-------1---------------------------------------
-----------------------------------------------
