29
33
---1-------------------------
--0----2-------0----0--2-----
---------------------------2-
-------------0---------------
-----------------------------
-------------2---------------
----------------------2--2---
-----------------------------
-----2-------------------2---
-------2-----------------0---
--------------------2--------
-------2----2----------------
-----------2-----------------
-----------------------------
-----------------------------
-----------------------------
-----------------------2-----
----20--0--------------------
-----------------------------
-----0-----------------------
---------------------------0-
---------------------------2-
--------------2--------------
--------2-------2------------
--------2--------------------
------------------------0--0-
-----------------------------
-----------------------------
---2-22---------------2------
