27
175
----------0----------------
0---1----------------------
---------------------------
---------------------------
---------------------------
---------------------------
-------------0-----------0-
---------------------------
-------------------------0-
--1---------------1--1-----
--------------------------0
----1------1---------------
---------------------1-----
-------01---0--------------
---1-1-------------0-------
1---------------------0----
--------1------------------
-----------------0---------
1-------0------------0-----
--1------------------------
--------------1--1---------
---------------------------
---------------------------
0--------------------1-----
---------------------------
----1-1---------1-------1-0
1-------1----1----------1--
