33
135
---------------0-----1-----------
---------------1---1-1-----------
------------------------1--------
--1----------------0------------1
----------------1-------------0--
---------1-----------------------
---0------------0----------------
-----1--1------------1-----0-----
---------------0-------1--1--0---
------------1--------011-1-------
-----------1------1---------10---
------------------1------1---0---
---------1--------------------0--
----------11-----1---10----------
----------------------1---1------
----------0----------11----------
-1--------0-0------1-------------
00-0-----------------------0--1--
-----1-------------------1-------
-------0-1-------1--------------1
--1-------------0-----------1----
---------------------------1-----
-----------0-------------------1-
-----------------------1---------
--0----------------------------0-
1------1--0----------------0-----
----1-1---1---------0-----------0
---------------------------------
--------0------------------------
---1-1--------0----0---1-----0---
---------------------------------
---------------------------0-----
---------------------------------
