32
66
--------0---------------0------4
----02-----------2--------------
--------------------------------
----------------0-1-------------
-----------0------------1-------
------1------2--4---------------
------------------------------1-
--------------------------------
--------4--------4--------------
-----2-----------1-1------------
----------------------------4---
-------------------------------4
---------3-----------------0----
------------------------1-------
--------------------------------
---2-------------0------1-------
-------------4--------2---------
--------------------------------
---0--4--0-1----------------0---
-----------0----------------0---
-------------4------------------
-------------------------4------
--------------------------------
-0-----------------02-----------
--------------------------------
0-------------0--------4------1-
---------0------0---------------
-----------------------------0--
-3------------------------------
---------4----------------------
--------------------------------
--------------------------------
