27
132
---------------------------
---------------------------
-----2------------3--------
---------------------------
---2-----------------------
---------------------------
---2---------0---------3---
---------------------------
3-----4---------------1----
---------------------------
-----------------0---------
-------02------------------
---------------------------
---------------------------
--------------4------------
--------------------4------
-----------------------2---
---------------------------
-------3-----------3-------
3---------------4----------
------1--------------------
------------------------1--
-----------4------------3--
-----------------------2---
---1------------------4----
-------------4-------------
-------0-------------------
