54
303
0-----------------------------------------------------
------------------------------------------------------
------------------------------------------------------
------------------------------------------------------
-----------------------------------------0-----------0
------------------01----------------------------------
-----------------------------------------------1--1---
------------------------------------------------------
--------------------0----------1----------------------
--------------------------------------------------0---
-0--------------------------------------------------0-
-------------0----------------------------------------
------------10----------------------------------------
-------------1----------------------------------------
-------------------------1-------------0-------------0
-----------------1------------------------------------
-------------------------------------------0----------
-----------------------------------1------------------
-----------------0------------------------------------
--0------------------0--------------------------------
------------------------------------------------------
------1-------1---------------------------------------
------------------------------------------------------
-------0----------------------------10------------0---
------------1-0----------0--------1----------0--------
--------------------------0-----------------------1---
1------------------------1----------------------------
-------1-------10--------1--------------1------------1
---------1--------------------------------------------
-------------------------------------------0----------
-----------------------------------------0-----0------
------------------------------0-----------------------
------------------------------------------------------
-------------------10-------------1-------------------
---------------------------------------0------1-------
-----------------0-----------------------------------0
--------------------------1--0-----------------------0
----------0-------------------------------------------
-----------1------------------------------------------
----------------------0----------1--------------------
-------0--------------10--0---------------------0-----
-----------------1-----00--------1----0-------1-------
------0-----------------1----------------------1------
---------------------------------1--------------------
--0---1--------------------------------------------0--
-----------1------------------------------------------
-------------------0-------------1--------------------
------------------1---1-------------------------------
--------1----------0----------------------------------
-------1-----1---1----0-----1---1---1-------1---------
---------1-0----0-------------------------------------
-----------0--1---------------------------------------
-1-------------------------1--------------------------
------0-----------------------------------------------
