48
247
--------------------4---------------------------
------------------------------------------------
--------------3--------------------1------3-----
---------------------3-------------3-----4------
-----------0----------1-------------------------
--------------------------3--3------------------
------3---3-------------------------------------
-----------------------------------4--4---------
------------------------------------------------
----------4-----------------------3-----3-------
--3---4------3----------------------------------
-3-----------------------3------------3---------
-----------3----4-------4--------------3--------
---------------3-----------------------------3--
-----3-----------4-33-----------------1---------
-33---------------------------3-----------------
------------------------------------------------
---------2---------------------------------3-4-3
------------------------------------------3-----
--4--3------------------------------------------
------------1---------------------4-------------
----3-------4---------------------------------4-
--------4------------------------------------3--
--------------------------------------------3--0
---2-----------------------------------------3--
---3----------1--------------------------3------
------------------------------4-3-----------1---
-----3-----------------4----------------------0-
-----2------------------3-----------------------
------------------------------------------------
--------------------4------------------------3--
-----------------3------1-----------------------
-----3------------------------------------------
-2----------------------------------------------
------------------------4---------------------3-
------------------------------------------2-----
---3--3--------------43-------------------------
-------------------------------------------3----
-------------------4--------------------3-------
-0----------------------------------------------
-4------3---------------------------------------
-------3------------------------------3---------
----------------------------------------4--4-1--
----------------3-------------------------2-----
--3-------------------------------------4-------
-0---------3---------3--------------------4-----
--------------------------------------1---------
-------------4----------------------------------
