33
127
---------------------------------
----2----------------11----------
-----------------2---------------
---------------------------1-----
---------2-2---------------------
---------1--------1---2-2-0------
---------1---------------------1-
---------0----------------1---2--
------2---------------2-1-----1--
------------2--------------------
---------------------------------
------------------------1--------
-----------------2-----2---------
2--2--------2-------2------2-----
----------------1----------------
---------------------------------
-----1--0------------------------
---------------------------1-2-1-
----------------2---------------1
---121---------------------------
-2----2--------------------------
------0--------------2-----1-----
1--------0----------2---------2--
--------------------1-----------1
----2----------------------2-----
1----------------10--------------
------------2------1----------11-
-----------------2--------2------
-------2-------------------------
-----------------1---------------
-------2-------------------2-----
11--------1----1---------1-------
-------------------------------1-
