29
93
---------------0----2--------
----------4---------3--------
---------4---0-0------------2
--------0-----3--0-----------
----------3---0--------------
--1------1-0------4----0-----
------------4--------0-------
-------1----------------4----
-------0-------4----1--------
----0---4--0------0----------
----4-----------------0------
-----------------------------
4----00----------------------
------1---0----------30-----0
---------------------------4-
-----------------3---------4-
----1------------------------
-------------0---------------
-1-----------0-0------------4
----4------------------------
-----------------------------
----------------0--0---------
--4--------------------------
------3-0--------------------
----3----1-------------0-----
-----------------------------
----------0--4---------------
---0----------------------2--
----------------------0------
