60
269
-------------------------------------------------3----------
--------------0---0--3-----------------0--3--------0--------
------------------0---0---0---------------------------------
------------------------------3-----------------------------
-------------------------------------3----------------------
----------------0-------------------0-------3---------------
------------3-----------------------------------------------
---------------------3--0-0---------------------------------
------------------------3---------0-------------------------
------------------0--------------------3--------------0-----
-------------03---------------------------------------30----
--------------------------3-3-------------------------------
-------------------0-----0---------2-----0------------------
------------0--------------------------3--------------------
--------------0------------3---------------------0--0-------
---0--------0--3----------------------------------------3---
-----0------------0----------------3------------------------
-------------------------------3------3----------0----------
-------------3----------------------------------------------
------------2-----3-------------3-------------------2-------
------------------------------------------------------------
0-----------0-----------------------------------------------
--------3-------------------------------3-------------------
-------------------------------0----0-----------------------
----0----------------------------------------------3--------
---------3-------------------0----------------0-------0-----
-----0-----------------------------------0------------------
------3--------3--------------------------------------------
--0---------------------------------0-----------------------
----0-----3-----------------------0-----3-----------0-------
----------------------------------3-3---3------0----------3-
---1----------0-----------3---------------------3---2-------
----------3--------------------3-------------------3--------
----0------------------------------3-3----------------------
--------------------3--------3------------------------------
-------------0-------3--------------------------------0-----
------------------------------------------------2-0---------
----------------0--------------------0----------0---0----3--
-----------------------------3-------------3------------3---
--------------------3-----------------------------0------0--
----------3-----------------------------------------33------
--3-------------------3--------------------3----------------
--------0-------------------3-0--3------0-------3-----------
---------3---------------------0---------------------------3
----------------3-------------------------------------------
-----0-------------3-------------------3--------0--------3--
--3---------------------------------------------------------
-------------------0----------------3--------------3---0----
-----------------------3----0-------------------------------
---------3------------3--------------------2----------------
--------------3--------------0------3-3------------3--------
---------------------0--------------------------------------
-30-----0-0-----------------------------0--------0----------
--0-------0---------------3---------00----------0-----------
------------------------3--3---------3-3--------------------
--------------3--------------0--------3---------------3-----
-------------3-----0--------------------0-------0-----0-----
---3-------0------3------------3----------------------------
--3---------------------------------0-----3-0---------------
------3-----------------------------------------------------
