30
74
-------2----2---4-------------
-----33-------------3--2------
-----------------2-----2------
-0------------------------2---
-------------2----------------
--2---------------------------
----------------0--4----------
--2---------4-----------------
----------2------0----------3-
-----------2-------3----------
---------44------2----------4-
------------------------------
--------------------------0--2
-------------2---------------4
-4---------2------------------
------2----------2------------
------------------------------
-------------3---------4------
---23----4----------------3---
------3----2-42-------4-------
-4----------------------2--3--
--2-2-------------------------
---------2----4---------------
--------------3---------------
----------------------2-------
3--------4-2-----------4-2----
----------------------------0-
--2------------------0--------
-------3----------------------
-------0---------2----4-------
