26
150
---------01-14----1-------
---1----------------------
--------------------------
------------------1-------
--------------------------
0--1----------------------
----------0-1-------------
-----1--1-----------------
--------------0-----------
-------1---------------0--
-0---0------------1-------
-------------------------3
---0----------------------
---0----------------------
------------1-------------
----1------0-------------3
-----0------1---0---------
--------------------------
-----1-----4--------------
--1-4---------------------
------------------------0-
--------01-------0--------
--------------------------
0---0---------------------
-----01------0---------0--
----1---0---1---1----0----
