35
97
----------0--------1-----3-------0-
--------------------0---2----------
---0------1------00---1--------3---
---22------------------------------
----------------01-----------0-----
------------------------------0-0--
-----0-----------00--------0-------
---------------0---------0-1-----0-
----------------------------------0
---------1---------------------0---
----------3---2-2------------------
--0-----------------00--0----------
--1---0------0---------------20----
---10--0-------1-2--------0--------
--------0--0---------------1-------
------0-----1----------0---0-------
--0---0-------------0----0----0----
---------------2------0------------
-1-20----0--0-----1-0-0----------1-
00-------1-1------1---------3----0-
-0------------2---0----------------
------10---------------1-----------
---------------0-0--2--0-----------
-------------------0--0---------3--
---------0--------0--------------0-
--------------1---------0-0-----1--
-1------0-----------------02-----0-
--1----0-----------------1---------
---------------0--00------------0--
--------0-----------------0-0---0--
-----------------------------------
---00---2----11----1---------0-----
2----------------------------------
---------2------0---0----------1---
-----------------------------------
