40
195
------------0---------------------------
--------1---------1---------------------
2----------------2------1--------2-1----
----12-------------------------0--------
--------------------------3-------------
-------------1--1-----------------------
2----------------------1--1-------------
----------1------1----------------------
-----------2--------2-----------1----2--
-------2-2---------------------20-------
----------1-----------------------------
-----2---------2-----------1------------
0---------2---------------------------1-
----2-----1-----------------------------
------------------------3----1----------
--2--1-------------0--------------------
----2---------2--------2-------2--------
-------------------------------2--------
------2-------2----------3--------------
------------------2---------------------
----2--------2-----------------3--------
---------------1-----------2--0---------
---2---2---------------2-------2--------
---2----13-2---------------------------1
------------1------2--------------------
-----2-2-------1-31----------------2---2
-----------2-1--1-2---22----------------
-20---------0---2-2----------1-2--------
----1-------------------------21--------
---2---------------2-------1---1--------
---------------1------2--2--------2-----
------------2---1----1------3-----------
-------1--2--3-2------------------------
3-3----2--------------------------------
-2-------------------11---1-------------
---------------------1------------------
-----------------2---------------3------
-----------2-----------3-1--------------
---------2----2--1-------------1--------
------------------------1---2--2---22---
