51
304
--------------------------------------1---1--------
----------------------------1---1-------------2----
-----0--------------------1--2-1--2-------1---1----
-1----------1-------0-1----1------2----2----------1
---1-------------------------------1-------1-----1-
---2-------01-----------------------------1--------
-------1--------------1-------2--------------------
-----1--------------------------------1------------
-------------1------------------------1------------
-----------0---------------------------------------
---------------------0-1------------0---------1----
---------1---------------------------2-------------
---------------------------------1-------1---------
--------------------------1----------2-------------
---------------------------------1-----1--1--------
----------1---------------1--------------------1---
-------1---------------------------0------------1--
----------------------------------------1-2---1----
--------------1-----1------------------------------
-----------------------1---------------------------
-------------------------------------------1-------
---------1-----1----------------1-------1--1-------
--------------------11---1----------------0--------
----------------1---10----------1-1-1--------------
-----1------------1-----------1----2------------11-
--------1---------1--------------------------------
----------------------------------0-----0------2---
-1-1---------------------------1----------------1--
---------1-----1------------1---1---1-1------------
--------------1---------------------------1--------
---------------------------------------------------
-------------------------------1-------------------
---------0--1-------------------------0--1---------
----------------2----------------------------11----
--1----1-----------1------1------------------------
1---------------------1----------------------------
1------1------------------------0------------------
-----------------1------------------------0--------
-0-1------1---1-----------------------------2-1---1
---------------------1--1------------0-----1-------
-----------1------------1--1---------------1-------
-----1-------------------0-------------1-----------
-----------1----------------1--1-------------------
---------------------------------------------------
----------0---------------------------------0------
--------------1--------2----------1----------------
---------------------0-----------------------------
---0--------2--------------------------------------
-----------------------1-------------------------1-
---------------------------------------------------
-------------1----1-----1--------------------------
