36
246
----------------2-------------------
1--2----------------------1---------
1-----------------------1-------1---
----------------------------------2-
----------------------------1-----2-
--------0-------------2-------1-----
----------------------------0-0-----
---------------------1----1---------
---------------------1-----------2--
--2---1-------------2--------1--1---
---------2--------------2-----1-----
----------------1--------21---------
1--------------------0----------1---
-------2----------------------------
-------------------1----------------
-----------2------------------------
-----1---------------------------1--
------2-------1------------------11-
------2--------------------------21-
---------0----2---------1-----------
-1------------------------------21--
------1-----------------------------
---1----------------------------2---
----------------2--2----------------
------0------------------1----------
----------2--------------01---------
----1---1---------2------------1----
--------------------2---------------
-----------2-----------------1------
-----2------------------------------
--------------------------2---------
----------------------0---------1---
-------1----1---------------------1-
1------------------------21------2--
----2----1-2-----2-------------2-2--
-2--1---2---------------------------
