50
346
-------------------------0---------------------0-0
-----------------------0--------------------------
---------0--------------------------0-------------
--------------------------------------0-----------
------0-------------------------------------------
----------------------------1---------------------
----------------------------------------------0---
---00---------------0-----------------------------
--0----------------------0--------------1---------
--------------------------------------------------
---------0--0------------------------------------0
------------------------0-------------------------
--------------------------------------------------
-----------------------0--------------------------
--------------------------------------0---------0-
-----------0-------------------1------------------
-------1---00-------------------------------------
------------------------------------0-------------
--------------------------------------------------
--1-------------------0---------------------------
--------------------------------------------------
0--------------------------0----------------------
------------1-------------------------------------
--------------------------------------------------
--------------------------------0---------0--0----
--------------------0-----------------------------
---------0-------------------------------0--------
-0----------------------0-----------------0-----0-
--0-----------------------------------------------
---------------------0--------------------00------
-----------0--------------------1-----------------
----------------0-----------------------0---------
----------0------------1----------0-----1---------
--------------------------------------------------
-----------0--------------------------------------
------------0-------------0---0-0-----------------
-----------------------------1--------------------
--------------------------------------------------
--------------------------------------------------
---------------1----------------------------------
------------0--------00---------------------------
---------------------------------0----------------
--------------------------------------1-----------
----------------------0-0-------------------------
------------------0-------0-----------------------
---------0------------10--------------------------
---0---------------------0------------------------
-1-------------------0-------------0----------1---
----------------------0--------0------------------
--------------------------------------------------
