42
183
------------------------------------------
0----------------------0-------1------02--
------------------------------------------
0---0----01--20----------------------0----
------------------------------------------
-----------------0----2--------2----------
------------------------------------------
---2---------0----------------------------
--------------------0-0-----12------------
--------------0-----2--2------------------
1--------------1----------2--0----------1-
------0-----------------------------------
--------------------20--------------------
0----------------------0------------1-----
------2-----------------------------------
-------------------0---0----------0-------
---------0---------------2----------------
------1-----------------------------------
-02--1----10-2---0---------------1--------
----------------------------------0---0---
01-----------------0-------0--------------
--------------0----0----------------------
------21------------10--------0----02-0---
------100-----1------------------1-------2
------------------------------------------
------------0--------------------------00-
--0----0-------0----0----------0----------
--0--------1--0-2--0-----------------1----
--------------------00-21---------1-------
---1----------------------0--------0---0--
-----------0------------1------------0----
0----------0--------------------0-----2---
-------------0-----0-------------1--------
0-----------2----------0-----------------0
----1---------------1--------1---2--------
-------------0--------------------2-------
-------------------2----1-------1------2--
--2----------2--0-1-----------------------
---2------1-0--2--------------------------
----------------------0-------------------
-----------------------------0-2---02-----
--2----2------1-----------------------0---
