45
288
----------------------1---1------------------
---------------------21-1-------------------1
---------------------------1-----------1-----
----1----------------1----------------1------
-----1------------1----1--------------------1
--------------------1---1--------------------
------------------------------1--------------
--1--------------------------1---------1-----
---------------1-1-1---1-1---1---1-----0----1
-1----------1-------------------1--2--------1
--2-------------1--------------1-------------
-------------------------1-------------------
------------------------------1--------------
-----------------------------------------0---
1------------------------2------1------1-----
------1---0-----1----------------------------
-------------------------1-------------------
1--------1-------------1---------------------
1-1-1----------------------------------------
-----------1---------------------------------
-----------------------------------1---------
------------1--0--------------------------1--
-1---1-------------------1-------------------
1------------------------------1-------------
-----------1----------1---------1--1----1----
---------------------------------------------
---------1------1--------------------1-----1-
--0---------------1-----1-0------------------
------------------------11-------------------
--1-----1---------------------------1------1-
------------1---------1------1--1------------
---------2---1-----1-----------1------------1
---------------1-------------------1---------
------------------------1--------------------
0---------------1--------2-------------------
-------------------------------------1-------
----------1---1-----1--1---------------------
-1-1--------1-1------------------------------
----------------------1---------------1------
---------------------------------------------
-----1----------1-----------------11---------
-------------------1----1--------------0-----
--1------------------------------------------
------------1------------------------1-------
-0-----------------------0---------------1---
