58
60
-------------------------------0---------------0----------
--------------0---0------------------0--------------------
------------------------------------0--0-0-----0--1-------
---0-----------------1----0-------------------------------
---------------------------0----------------0-------------
--------------0---0---------0-------------------------0--0
------------0--------------------0---0--------------------
--------------------0------0----0-----0-----------------1-
---------------1----------------010--0--------------------
----------------------------------------------------------
00-----00--0------00-----------0---------------0----------
---------------------------------0-----0-0---------00-----
-------------------------------------0--------------------
-------------------0----------------0-----------0-----0---
-------------------0--------1--0--------------------------
--------------------------0--0----------------------------
------------------0----------0------------0----0---0------
-----------------------0----------00--------------0--0----
-----0--0---0----------------------0----------------------
------------------0-------------------------------------0-
--------------------------------------------------------0-
------0-------------0--------0-------0----0---------------
0--------0--------0-0-------------------------------------
0-----------0---------------0--0--------0----------0------
-----0----0----------------------------0--0---------0-0---
----------------0---0----------0-----------0--------------
-0--------------------1-------------0----------------0----
-------0----------------------0---0---0-------------------
0-----------------------------------------------0---0-----
----------------------------------------------------------
-0--0-----------------------------------------------------
----0--0-----------------------------------------0--0-----
----------------------------------------------------------
-----------0-------------0---------------0----------------
-------------0------------0----0--------------------------
-------0-------0--0-----------------------------0----1----
---------------------------0---0-------------------------0
----0---0----------------0--------------------------------
-----------------------------0----------0-----------------
-------------------------------------0------1-------0-----
-00---------------0-----0--------------------0------0-----
----0-------0------------------0-----------0---------0----
----------1---------------------------------00------------
------------------1------0---------0----0-----------------
--------0------------0------------------------------------
-------------0--------------------------------------------
------------------------------0----------------0-0--------
--------------------------0----------0--0-----0-----------
-------0-------------------0------------------------------
----------------------------------0--0--------------------
1-------0------------0------------------0-----------------
-----------------0-----------------0--------0-------------
--------------------------------------0---------0---------
-------------------0-------------0----------0---0-----0-1-
----------------------------------0----------0---0---0----
-------------------0------------------00-0------------0---
-----------------0-----0-0---0----------0----------------0
-------0---------0-----------------0---------0------------
