31
168
-------------------------------
------------0-------------1-11-
--------------------------01-1-
1-------0----1-----------------
--------1-------------1--------
-------------------------------
--------------------0----------
-----0--1------------0---0---10
----10------0--------1---------
-------------------------------
--0-----------0----------0--0--
1-------------------------0----
---------1-----------1---------
0-------------1---1-----------1
---------------0--1------1-----
------------1-----------1----0-
-------00---1----1-------------
-------------------1-----------
-------1--------0--0-----------
------1----0-------------------
--0-0-------------------------1
-1--------0--------0--1-------1
------1-----1------------------
---1-----------------1---------
-----------------11------------
-----1-------------------1--010
-----1----------------01-1-1-1-
-1-------------1---------------
--------------1---------0-1----
--0---------------1----1-------
-0--1--1-----------------------
