26
114
--1----3--0---------2-----
---0-----0------30--------
-----1-------2-32-----1---
0--030--------1--------2--
--0-1-------30----------1-
--------------------------
-----2-------------------2
-------------0-----0------
-------31-------2-0-0-----
-----------------0----0--0
------------2-0-----------
-----------------------3--
----------00----2---------
2------2-2-----3----02--0-
0---1--3-----0----------2-
-2---3---2-------1-0---0--
--10--------------2-------
-----------------3-0------
---------0-0--------------
--------------01----------
---2---------------------0
-10-0--1----2-------------
--1--221---------02------3
--310---0----3----2----0--
--0---------3-101---------
--2-1-------------------2-
