48
354
--------------0--------------------------3------
-----2------------------------------------------
---2--------------------------------------------
-----------------------------------------------2
------------------------------------------------
----------------------------------2-2-----------
------------------------------------------------
------------------------0------0--2-------------
--------2------------2-------2------------------
----------------------------2-------------------
----------------------2--------------2----------
--------------------------------------2---------
-----------------------2-------0----------------
-----------------------------------2------------
23----------------------------------------------
----------------------------------3-------------
------------------------------------------------
-----------------2------------------------------
--2--------------------------2------------------
-----0------------------------------------------
------------------------------------------------
-----------------------03-----------------3-----
------------------------------------------------
---------------2------------2-------------------
----------0-------------------------------------
-----------------------------------0------------
---------------2------------------------0---2---
-----2------------------------------------------
----------------------------------2-------------
-------------2----------------------------------
--------------------2---2---------------------2-
--------------2--------------------------22-----
-2----------------------------------------------
------------------3-----------------------------
-------------3----------------------------------
----2------0-----------------------02-----------
------------------------------2-----------------
------------------------------------------------
2---------------------------------------2-------
------------------------------------------------
------------------2---------3-------------------
----------------------2----------------2--------
----------------------------2-------------------
-----------------------------------------2------
------------------------------1-----------------
------------------------------------------3-----
-------------3----------------------------------
---------------3--------------------2-----------
