47
370
----------------------------4------------------
---------------------4-----1-------------------
----------------------1-------------1--1-------
---------------------4-------------------------
----------------------4------------------------
-----4----------1----1---14--2-----------1-----
--1-1--0---------1---------2---------1---------
--1----1--------------------------------------4
-------2-4-4--1--1----4--4--------------1--1---
--------------------------------4----1---------
---4-------------1--------1--------------------
-0----------------------1----------------1---41
--------------2-----------1---------------0----
-----21---1--1-1-------------------------1-----
------------------2--1--------------------2-4--
---------------1---1------------------------1--
--------4---4----1-----------------------------
---------------1-------------------------------
-----------------------------------1-1---441---
------------------------------2----------4----4
---------------------------------1-----1-02----
---------------------------------------------1-
----1---------4--------------1---------1-------
------1--4-------------------------1-----------
------------------2---------4------------------
----2----------4-------------------------------
--2------------------2---------440-------------
------------4---------1------------------------
-----1-------------1-1----------1------------11
--1----0----------1----4-------------44---0----
-1--1-------------1-----------------1-------0-4
------------4-------------------2--------------
--------4------------------------11---------2--
---1--------1-4------------------1-------------
---4----------2--------------------------------
------------------------4----4-----1---12------
-----------------1-------------4-----1---------
---1---14-------1------------------------------
------------------4-------1-----1--------------
-----------------------1-1---------------------
-2----4------1-------------------------------4-
------2--------4---2-----1-------4------1------
-----------------------------1-----------------
----1--------4---------1-----------------------
---------1-------------------------------------
----------1---11------1---1-4--4---1-----------
-4-----------1---1--------------4--------------
