34
263
----------0---------------------1-
----0----------------2-----------0
-----------1-------2-----------2--
---------2--------2---------------
----------------2------1----------
-----0--0-----------1------------1
-------------------21---------1---
-----2--------2-------------------
-----------------------------1----
-------2--------------------------
-2-------------------------1------
-----------------------2----------
-----------1----2--------------0--
---2------1-2------0--------------
-------------0--2---------0-2-----
----------------------------------
---------------------------0---0--
-2---------------------------0----
---2-2----------------------------
------------2---------------------
0---------------------------------
------------2-0-------------0--2--
---------------------------2------
--2------1------------------1-----
--------------------------0-------
2---------------------------------
----------------------------------
----------2------------1-------2-0
----------------------------------
----------------------------------
----------------------------------
-------2-----2--------------------
-------------2-------------21-----
------2---------------------------
