57
86
-------1-------------------------------------------------
-1------0----------0-----------------------1-------0-----
---------------0---------------------------1----------2--
----------------------------------------0----------------
---------------------1-----------0-----------------------
---------------01-------0------1------------------2----1-
------------------------------------11------------------0
---1--1----------------------------------------------1---
--0---------------1--------------------------------------
--1--1---------1------------22-----------1-----------1---
-1-----------------------------------------1----------1--
----------1------------1---------------------------------
---------------1------------1-----1--------------------0-
--------------------------1-1-1------1----1--------------
-------1------------1------------------------------2-----
------------------------1--------------------------------
---------2-----------------------------------------1-----
---------1-------------------------------22-----1-------1
-----------------0----------------------------------1----
--------------------------0------------1-------------1---
-----------------------------------1---0-------2---------
-1----------1-------------1------------------11----------
---------------------------------------------------------
----------------------------1----------------------------
-----1----1------1---------------1-----------------202---
-----------------2--------------0------------------------
---------------------------------------------------------
-----------------------------------0---------------------
----------------------------------------1----------------
------------------------------2----------------2---------
------------------------------1--1-----------------------
-----------0--------1------------------------------------
-------------1-----------1-----------------------1-------
---------1------------1---------------0-----------------1
--------1---------------------------------1--------------
---1----------------0------0---------1-------------------
--------------1--1---------------------2-----------------
-----------------------0---------------------------1-----
-----------------------------------1---------------------
---------1-------1---------------1----------------1------
---------0-----------------------------------------------
----------------------------------------2----------------
-------------------------0---------------------0-------0-
---------------2---------------------------0-------------
---------------------------------------------------------
-------------------------------1--1--------1----1--------
-----------------------------------1---------------------
---------------------------------2---------1------1--0---
0------------2--------------------------------1----------
---1--------------------------------------------------1--
---------------------------------------------------------
----------------------------1----1---------------------1-
---1----------1------------------------------------------
------------------------1---1--1--1----------------------
-------1------1----------0--------------------0----------
---------------------------0--------------------1--------
---1----------------1-----------2----------1-------------
