57
136
---------------------------------------------------------
--2-----------------------------------------------------2
------------------------------------2--------------------
2--1---------------------------1-----------------0-------
-----------------2---------------------------------------
---------1-----------2----------------------------2------
----------------------------------2---1------------------
---------------------------------------------------------
----------------------1----------------------------------
------------2--------------------------------------------
----2----------------------2-----------------------------
---------------------------------------------------------
---1--------2---------------------------------21---------
------------------2---2----------------------------------
------1--------2-----------------------------------------
----------------------------------3----2-----------------
---------------1--------------------------22-------------
---------------------------------------------------------
1--------------------------------------------------------
-------2-------------------------------------------------
--1-------------1--1----1--------------------------------
-----------------------------1------1--------------------
1-------------------0-----4------------------------------
2--------------------------------------------------------
-----------2---------------1-----------------------------
---------------------------------------------2-----------
-----------------------2---------------------------------
---------------------------------------------------------
-------------------------2-------------------------------
-----0---------------------------------------------------
---------------------------------------------------------
---------------------------------------------------------
-------------1-1-------------------------------------2---
----------------1-----2--------------------2-------------
---------------------------------------2------1----------
---------------------------------------1-----------------
----------------1----------------------------------------
--1----------------------------------------2-------------
------------0--------------------------------------------
---------1-----------------------------------------------
------------------------2--------------------------------
----------------------1----------------------------------
--------------------------------------------------------0
---------------------------------------------------------
2-------1-------------------------------------------2----
--------------1------------------------------------------
----------------------------------------------------1----
---------------------------------------------------------
----------------------2--------------------1-2-----------
---------------------1----2-------1----------------------
------------------1----------------------------------2---
-2-------------------------------------------------------
-----------2-----2---------------------------------------
---1-----------------------------------------------------
-----------------2------------------------------1--------
3--------------------------2-----------------------------
--------1--------------------------------------------1---
