52
202
-----------0----------------------------------------
--------------------------1-------------------------
------------1---------------------------------------
----------------------------------------------------
----------------------------------------------------
----------------------------------------------------
-------------------------------------------------1--
----------1-----------------------------------------
------------1---------------------------------------
---------------------------------------------1------
-1----------------------------------------1---------
---------------1------------------------------------
----------------------------------------------------
----------------------------------------------------
----------------------------------------------------
--1-------------------------------------------------
----------------------------------------------------
----------------------------------------------------
----------------------------------------------------
---------1----------------------------------1-------
----------------------------------------1-----------
----------------------------------------------------
----------------------------------------------------
--------------------------------1------------------1
----------------------------------------------------
------------------------------------------0---------
----------------------------------------------------
----------------------------------------------------
-------------------------------------------1--------
--------1-------------------------------------------
--------10--------1---------------------------------
----------------------------------------------------
--------------1-------------------------------------
----------------------------------------------------
--------------------------------------1-------------
----------------------------------------------------
-----------------------------0--------------------1-
----------------------------------------------------
----------------------------------------------------
---------1------------------------------------------
----------------------------------------------------
---------------------------------------------------1
-----------------------------------------1----------
------------1---------------------------------------
---------------------------------------------------1
------------------------------------------------0---
----------------------------------------------------
-----------------1----------------------------1-----
----------------------------------------------------
--1-------------------------------------------------
----------------------------------------------------
----------------------------------------------------
