30
135
------4------0--0-----1-----4-
--------------1---------------
---4-----43--0-4--1--------4--
0------4-0-----1---------3--0-
------4--0-3---3--------------
-43----------34---------------
-----------------1-----0---01-
-------4----------------------
--40-0---0---------40-4-0----1
----------------------0-------
------1------4-4-----1--------
--0----------4--0---3---3-----
01-------0--------------------
--------0-4-1-----------------
---0-0----0----3-----------4--
-4--------------2---3---------
0--------------13---4---------
--------0--4----4-0----0------
-------4--------0------0------
-----0-----------------------4
----------------------------4-
--3---------------------------
--1----------------3----------
------------------0-----------
-----4------------------------
-1---------0-------1---1------
------------------------4-----
-0---4----------------------44
--------0--0----------4-------
------0-----4----1-------4----
