57
74
------------------------------------1-------1------------
-----1------------------------------------------------3--
-------2-------------------------------------------------
---------------------------------------3-----------------
---------3---------------3-------------------------------
-----------3------------3--------------------------------
-----------------------1---------------------------------
----1-----------------------1----------------------------
----------------3-----------------1---1------------------
-------------------------------3-------------------------
-3-------03-------2--------------------------------------
-----------------0---2------------------------3----------
--------------------------------------------------1------
-----------2------------3------2-------0----1------------
---------2-------------------------------2---------------
---0------------------------------3---------------------0
---------------1------------2-------3--------------------
------------1------3---------------------------3--------3
--0-------------------------------------------1----------
---------------------------32----------------------------
----------------------3----21----------------3-----------
------2--------------------------------------3--3--------
-------------3-------------------------------------------
---------------------------------------3-----------------
-----------------------------------------0---------------
---------------------------------------------------------
--------3------------------------------------------------
---------------------------------------------------------
--------------------3-------------------------3----------
---------------------------3-----------------------------
----------------------------------------------------1----
--------------------------------------------------3------
--------------------3---2--------------------------------
-------3-------------------------------------------------
--------1----------------------3------------2------------
-------------0-------------------------------------------
--------2--------------------2---------------------------
-------------3----------------------------------------1--
---3------------------2----------------1-----------------
-3--1---------------------------------------1------------
---------------------------------------------------------
-------------------2-------------------------------------
-------------------------------------3-------------------
-------1------------2------------------------------------
---------------------------------------------------------
---------------------------------------------------------
-------------1------------1---2--------------------------
---------------------------------------------0-----------
31---------3--------1-----------------------2------------
----------------------23--------------3---1--------------
----------------------------------------------2-1--------
---------------------------------------------------------
------------------------------3--------------------------
-------------0-------------------------------------------
--------------------1------------2-------------3---------
----------------------------2----------------------------
----------------------------------------------------3----
