52
63
------------------2-----2-2-----------0------2------
----2-------------2----0----------------------------
-----------2-2-22-----------------2-----------------
---------0-2---2---2--------2-----------------------
----------------------0--------2--------------------
-----------------2--2------------2------------------
------2------0--0-------------2---------------------
------0---------------------------0------------0---2
-----------------------2-------2------20------------
-------------0----2-----------------------22--------
---------2------------------------2--------------22-
----------2-----------------------2----2-----------2
20------2-----------------------22----------------2-
-----------2--2--------------------22---0-----------
-----2----------------------0----------------2------
2----2-------------------------2------------------2-
-----2--2-2--------------------------------2--------
-----------------------------------------2----------
-----------22-2-------------------2----2------------
------2---------------------------------2-----------
-------0---------2---2-----------------------0-0----
--2--2----2-0--2--2--------------------0------------
-----------------------2-----------------------0-2--
-------------------------------------------22-0-----
------------------------2------2------------------2-
----------2-------------------------2---------------
----------------------2-20-------------------2------
-------------------------0-----------------------2--
-----2------0--------2--0---------------------------
----0------2-2----2--------2--------2------------2--
-------------0-----------1--------------------------
-------------2-----------------------------2--------
----2-----2-------2--------------------0-----2------
--------------------2-------2-------------------2-2-
-----2----------2-----2---2------0------------------
---------------2--------------0------------2-----2--
-2-------------------------2---2--------------------
----------------2---------------------------0-------
----0---2-------1-2---------------------------------
------22----2-2-----0----------2--------2-----2----2
---------------------2-----------2------------2----2
---------------2--------------0-2-------------------
--------------------------2-------------------------
----------------------------------------------------
0-----0---0---------------------00------------------
----------2--2------------------0-------------------
------------------2-2--------0-----------2----------
------------------------22----2----------20---------
--------------0-------------------------------------
-------------0-------------2-------2------------2---
-----------------------------------------2----------
-----------------2------2-2-------------------------
