34
227
-----------1----------------------
------------------------1---------
1--------11------------0----------
-----1----------------------------
--1-21--------0---0---1-1---------
----------------0-----------------
-1-21-0---------------------------
-----------------------1-----0----
----------------2-------1-2-------
-0---0----------1---1------2--2--1
-----0------------------2---------
---------11020-----------------0--
------0-------------------------1-
----------------------------------
1-------------------0---1--0-----1
----------------------------------
1------------1--------------------
1--------1---------------11-2-----
---------------------------------1
---------------------0----0-------
-------------1---------2----------
-------------2----0----0----------
-1-------0------------------------
------------0----0-------11--0--2-
----------------------------------
------------------------1-------2-
--1-------------2-------------1---
----------------------------------
----010------1-1------------------
1----------------------1----1-2---
1----------------0----------2-----
--------0--------00------0--0-----
--0--------------------2--------1-
---------1-------1------------2-2-
