29
33
-----------------1-----------
--1----------1-----11--------
-----1-----------------------
-1-1-1-------1--1-1--1-------
------------------------1----
---------1---1---------------
----1------1--------1--------
--1----1----1----------1--11-
1-----------------111--------
--1------------11----------1-
-1-------11--1-1----1---1----
--11----------11-----11------
---1-11----1------------1----
------1--------1------------1
------------1-------------1--
----11--------1--------------
-1--1-----------------------1
-----------------------1--1--
--0------------11-------1----
----------------------------1
-----------------1----1-1----
------------1--11--1-1-------
----1------1-----------------
------1-------0--1-----------
----------------11---1-------
----------1------1-1------1--
-----------------1------11---
1-----1----------1----11-----
------11----11-1--1----1-----
