51
91
-------------------------1-------------------------
2---------1-1----------------------------------1---
-------------------------1-----------------2-------
------02---1------1---1----------------------------
---1-------2---------------1----1------------1-----
---1----1--1-----1---------1------1--2-------------
-1-------1------------------------------------1----
---------------------------------1---------1-------
---------2--2--------2---------0-------------------
---2-1--------1------------------------------------
-1---------2--------------0----1-------2-----------
-------1-----------------------------------2-------
-------1-------------------1-21--------------------
---------------------------------------------------
---------0----------1--1-----------1-1---1---------
------------------------1-----------2----------1--2
----1-----------------------02---------1-1---------
--------------2-----1------1-----1---------21-2----
---1-----------1-1---------------------------------
-------------------------2------------------1------
--------2-----------------1----------------------2-
-------------1---2---0------2----------------------
-------------------------------2----22-----2-------
-----1---------------------------------------------
------------1-------------------------------------2
------------1-----1--------------------------------
---1---1-----------1-----------1-------1----------1
----1------2--------------2--2---------2-1--------1
--1----------------2--------------------22-----2---
------------2------------1----2--------------------
-------------------1------------------11-----------
--2-----------1-------------2----------11-1-1---2--
-------------------22-----------------------1------
-----------1------1------------2-1------2-------11-
--------------------------------------1-----1----1-
------------------------------1-------10-----0-----
-------2--------------------2----------------------
---------------1111-----21----------------------1--
--------------------------1------------------------
----2-----2----------1---------------------------1-
------0--1------------------021--------------------
------2--------11---1----------1-------------------
---------------------------------------------------
---------------1--------1--------------------1-----
-----------------2---2----2------------------------
------1--1--------------1--------------------------
-----------------------------1---------------------
-----------------1----1----------------------------
-----2-----------0--------2-----------1------1-----
-------------------------1-------------------------
--------------------0--------1-------------1-------
